EESchema Schematic File Version 2
LIBS:power
LIBS:device
LIBS:transistors
LIBS:conn
LIBS:linear
LIBS:regul
LIBS:74xx
LIBS:cmos4000
LIBS:adc-dac
LIBS:memory
LIBS:xilinx
LIBS:microcontrollers
LIBS:dsp
LIBS:microchip
LIBS:analog_switches
LIBS:motorola
LIBS:texas
LIBS:intel
LIBS:audio
LIBS:interface
LIBS:digital-audio
LIBS:philips
LIBS:display
LIBS:cypress
LIBS:siliconi
LIBS:opto
LIBS:atmel
LIBS:contrib
LIBS:valves
LIBS:stm32
LIBS:tl494
LIBS:handler
LIBS:lph7366
LIBS:iface
LIBS:radio
EELAYER 25 0
EELAYER END
$Descr A4 11693 8268
encoding utf-8
Sheet 3 3
Title ""
Date ""
Rev ""
Comp ""
Comment1 ""
Comment2 ""
Comment3 ""
Comment4 ""
$EndDescr
$Comp
L LM358N U310
U 1 1 58C3BEE5
P 5700 2100
F 0 "U310" H 5650 2300 60  0000 L CNN
F 1 "LM358N" H 5700 1900 60  0000 L CNN
F 2 "Local:SOIC-8_3.9x4.9mm_Pitch1.27mm" H 5700 2100 60  0001 C CNN
F 3 "" H 5700 2100 60  0000 C CNN
	1    5700 2100
	1    0    0    -1  
$EndComp
$Comp
L GND #PWR060
U 1 1 58C3BEEC
P 5600 2600
F 0 "#PWR060" H 5600 2350 60  0001 C CNN
F 1 "GND" H 5600 2450 60  0000 C CNN
F 2 "" H 5600 2600 60  0000 C CNN
F 3 "" H 5600 2600 60  0000 C CNN
	1    5600 2600
	1    0    0    -1  
$EndComp
$Comp
L R R311
U 1 1 58C3BEF2
P 4400 1850
F 0 "R311" V 4480 1850 50  0000 C CNN
F 1 "8K2" V 4407 1851 50  0000 C CNN
F 2 "Local:R_0603" V 4330 1850 30  0001 C CNN
F 3 "" H 4400 1850 30  0000 C CNN
	1    4400 1850
	-1   0    0    1   
$EndComp
$Comp
L R R310
U 1 1 58C3BEF9
P 4400 2350
F 0 "R310" V 4480 2350 50  0000 C CNN
F 1 "2K2" V 4407 2351 50  0000 C CNN
F 2 "Local:R_0603" V 4330 2350 30  0001 C CNN
F 3 "" H 4400 2350 30  0000 C CNN
	1    4400 2350
	-1   0    0    1   
$EndComp
$Comp
L R R301
U 1 1 58C3BF00
P 3300 1850
F 0 "R301" V 3380 1850 50  0000 C CNN
F 1 "100K" V 3307 1851 50  0000 C CNN
F 2 "Local:R_0603" V 3230 1850 30  0001 C CNN
F 3 "" H 3300 1850 30  0000 C CNN
	1    3300 1850
	-1   0    0    1   
$EndComp
$Comp
L R R300
U 1 1 58C3BF07
P 3300 2350
F 0 "R300" V 3380 2350 50  0000 C CNN
F 1 "5K6" V 3307 2351 50  0000 C CNN
F 2 "Local:R_0603" V 3230 2350 30  0001 C CNN
F 3 "" H 3300 2350 30  0000 C CNN
	1    3300 2350
	-1   0    0    1   
$EndComp
$Comp
L GND #PWR061
U 1 1 58C3BF0E
P 3300 2600
F 0 "#PWR061" H 3300 2350 60  0001 C CNN
F 1 "GND" H 3300 2450 60  0000 C CNN
F 2 "" H 3300 2600 60  0000 C CNN
F 3 "" H 3300 2600 60  0000 C CNN
	1    3300 2600
	-1   0    0    -1  
$EndComp
$Comp
L GND #PWR062
U 1 1 58C3BF14
P 4400 2600
F 0 "#PWR062" H 4400 2350 60  0001 C CNN
F 1 "GND" H 4400 2450 60  0000 C CNN
F 2 "" H 4400 2600 60  0000 C CNN
F 3 "" H 4400 2600 60  0000 C CNN
	1    4400 2600
	1    0    0    -1  
$EndComp
$Comp
L CONN_01X03 P340
U 1 1 58C3BF1A
P 4200 5600
F 0 "P340" H 4200 5800 50  0000 C CNN
F 1 "DRIVER" V 4300 5600 50  0000 C CNN
F 2 "Local:Molex_KK-6410-03_03x2.54mm_Straight" H 4200 5600 60  0001 C CNN
F 3 "" H 4200 5600 60  0000 C CNN
	1    4200 5600
	1    0    0    1   
$EndComp
$Comp
L GND #PWR063
U 1 1 58C3BF21
P 3900 5800
F 0 "#PWR063" H 3900 5550 60  0001 C CNN
F 1 "GND" H 3900 5650 60  0000 C CNN
F 2 "" H 3900 5800 60  0000 C CNN
F 3 "" H 3900 5800 60  0000 C CNN
	1    3900 5800
	1    0    0    -1  
$EndComp
$Comp
L GND #PWR064
U 1 1 58C3BF27
P 2000 1700
F 0 "#PWR064" H 2000 1450 60  0001 C CNN
F 1 "GND" V 2000 1500 60  0000 C CNN
F 2 "" H 2000 1700 60  0000 C CNN
F 3 "" H 2000 1700 60  0000 C CNN
	1    2000 1700
	0    -1   -1   0   
$EndComp
$Comp
L R R314
U 1 1 58C3BF2D
P 5050 2500
F 0 "R314" V 5130 2500 50  0000 C CNN
F 1 "4K7" V 5057 2501 50  0000 C CNN
F 2 "Local:R_0603" V 4980 2500 30  0001 C CNN
F 3 "" H 5050 2500 30  0000 C CNN
	1    5050 2500
	0    -1   -1   0   
$EndComp
$Comp
L R R315
U 1 1 58C3BF34
P 5850 2500
F 0 "R315" V 5930 2500 50  0000 C CNN
F 1 "100K" V 5857 2501 50  0000 C CNN
F 2 "Local:R_0603" V 5780 2500 30  0001 C CNN
F 3 "" H 5850 2500 30  0000 C CNN
	1    5850 2500
	0    -1   -1   0   
$EndComp
$Comp
L C C310
U 1 1 58C3BF3B
P 7300 2350
F 0 "C310" H 7350 2250 50  0000 L CNN
F 1 "100n" H 7350 2450 50  0000 L CNN
F 2 "Local:C_0603" H 7338 2200 30  0001 C CNN
F 3 "" H 7300 2350 60  0000 C CNN
	1    7300 2350
	1    0    0    1   
$EndComp
$Comp
L GND #PWR065
U 1 1 58C3BF42
P 7300 2600
F 0 "#PWR065" H 7300 2350 60  0001 C CNN
F 1 "GND" H 7300 2450 60  0000 C CNN
F 2 "" H 7300 2600 60  0000 C CNN
F 3 "" H 7300 2600 60  0000 C CNN
	1    7300 2600
	1    0    0    -1  
$EndComp
Text GLabel 4400 1600 1    47   Input ~ 0
+5VA
Text Notes 1600 2800 0    60   ~ 0
~Current Shunt\n\nR = 0.0025\n\n0.01R 1W x 4 ||\n40A * 0.01/4 = 0.1V\n40A^2 * 0.01/4 = 4W
$Comp
L Q_NPN_BEC Q340
U 1 1 58C3BF4A
P 3100 6200
F 0 "Q340" H 3100 6350 50  0000 R CNN
F 1 "SS9013" H 3100 6050 50  0000 R CNN
F 2 "Local:SOT-23" H 3300 6300 29  0001 C CNN
F 3 "" H 3100 6200 60  0000 C CNN
	1    3100 6200
	1    0    0    -1  
$EndComp
$Comp
L R R340
U 1 1 58C3BF51
P 2650 6200
F 0 "R340" V 2730 6200 50  0000 C CNN
F 1 "1K" V 2657 6201 50  0000 C CNN
F 2 "Local:R_0603" V 2580 6200 30  0001 C CNN
F 3 "" H 2650 6200 30  0000 C CNN
	1    2650 6200
	0    1    -1   0   
$EndComp
$Comp
L GND #PWR066
U 1 1 58C3BF58
P 3200 6500
F 0 "#PWR066" H 3200 6250 60  0001 C CNN
F 1 "GND" H 3200 6350 60  0000 C CNN
F 2 "" H 3200 6500 60  0000 C CNN
F 3 "" H 3200 6500 60  0000 C CNN
	1    3200 6500
	1    0    0    -1  
$EndComp
$Comp
L Q_NPN_BEC Q341
U 1 1 58C3BF5E
P 3100 5000
F 0 "Q341" H 3100 5150 50  0000 R CNN
F 1 "SS9013" H 3100 4800 50  0000 R CNN
F 2 "Local:SOT-23" H 3300 5100 29  0001 C CNN
F 3 "" H 3100 5000 60  0000 C CNN
	1    3100 5000
	1    0    0    -1  
$EndComp
$Comp
L GND #PWR067
U 1 1 58C3BF65
P 3200 5300
F 0 "#PWR067" H 3200 5050 60  0001 C CNN
F 1 "GND" H 3200 5150 60  0000 C CNN
F 2 "" H 3200 5300 60  0000 C CNN
F 3 "" H 3200 5300 60  0000 C CNN
	1    3200 5300
	1    0    0    -1  
$EndComp
$Comp
L R R341
U 1 1 58C3BF6B
P 2650 5000
F 0 "R341" V 2730 5000 50  0000 C CNN
F 1 "1K" V 2657 5001 50  0000 C CNN
F 2 "Local:R_0603" V 2580 5000 30  0001 C CNN
F 3 "" H 2650 5000 30  0000 C CNN
	1    2650 5000
	0    1    -1   0   
$EndComp
Text GLabel 2400 5000 0    47   Input ~ 0
PWM_H
Text GLabel 2400 6200 0    47   Input ~ 0
PWM_L
Text GLabel 2000 1600 2    47   Input ~ 0
U_IN
Text GLabel 2000 1900 2    47   Input ~ 0
I_IN0
Text GLabel 7300 2100 1    47   Input ~ 0
+5VA
Text GLabel 5600 1600 1    47   Input ~ 0
+5VA
$Comp
L R R312
U 1 1 58C3BF78
P 5050 2100
F 0 "R312" V 5130 2100 50  0000 C CNN
F 1 "100K" V 5057 2101 50  0000 C CNN
F 2 "Local:R_0603" V 4980 2100 30  0001 C CNN
F 3 "" H 5050 2100 30  0000 C CNN
	1    5050 2100
	0    -1   -1   0   
$EndComp
$Comp
L R R313
U 1 1 58C3BF7F
P 5050 1700
F 0 "R313" V 5130 1700 50  0000 C CNN
F 1 "4K7" V 5057 1701 50  0000 C CNN
F 2 "Local:R_0603" V 4980 1700 30  0001 C CNN
F 3 "" H 5050 1700 30  0000 C CNN
	1    5050 1700
	0    -1   -1   0   
$EndComp
Text GLabel 4800 1700 0    47   Input ~ 0
I_IN0
Text GLabel 4800 2500 0    47   Input ~ 0
I_IN1
$Comp
L CONN_01X04 P300
U 1 1 58C3BF88
P 1700 1750
F 0 "P300" H 1700 2000 50  0000 C CNN
F 1 "SENSE" V 1800 1750 50  0000 C CNN
F 2 "Local:Pin_Header_Straight_1x04_Pitch2.54mm" H 1700 1750 50  0001 C CNN
F 3 "" H 1700 1750 50  0000 C CNN
	1    1700 1750
	-1   0    0    1   
$EndComp
Text GLabel 2000 1800 2    47   Input ~ 0
I_IN1
Text GLabel 3300 1600 1    47   Input ~ 0
U_IN
Text Notes 2700 4300 0    60   ~ 0
HALF BRIDGE DRIVER
Wire Wire Line
	3300 1700 3300 1600
Connection ~ 3300 2100
Wire Wire Line
	3300 2100 3400 2100
Wire Wire Line
	3300 2000 3300 2200
Wire Wire Line
	2000 1700 1900 1700
Wire Wire Line
	2000 1800 1900 1800
Wire Wire Line
	5300 2100 5200 2100
Connection ~ 5300 2500
Wire Wire Line
	4400 1700 4400 1600
Connection ~ 5300 2000
Connection ~ 4400 2100
Wire Wire Line
	4400 2100 4900 2100
Wire Wire Line
	4900 1700 4800 1700
Wire Wire Line
	5300 2000 5400 2000
Wire Wire Line
	5300 1700 5300 2100
Wire Wire Line
	5300 1700 5200 1700
Wire Wire Line
	5600 1600 5600 1800
Wire Wire Line
	1900 1900 2000 1900
Wire Wire Line
	1900 1600 2000 1600
Wire Wire Line
	2500 6200 2400 6200
Wire Wire Line
	2500 5000 2400 5000
Wire Wire Line
	2900 5000 2800 5000
Wire Wire Line
	3200 5200 3200 5300
Wire Wire Line
	3200 6400 3200 6500
Wire Wire Line
	2900 6200 2800 6200
Connection ~ 6100 2100
Wire Wire Line
	7300 2200 7300 2100
Wire Wire Line
	6000 2100 6400 2100
Wire Wire Line
	7300 2500 7300 2600
Wire Wire Line
	6100 2100 6100 2500
Wire Wire Line
	6100 2500 6000 2500
Wire Wire Line
	5300 2200 5400 2200
Wire Wire Line
	5300 2500 5300 2200
Wire Wire Line
	5200 2500 5700 2500
Wire Wire Line
	4900 2500 4800 2500
Wire Wire Line
	4400 2000 4400 2200
Wire Wire Line
	4400 2500 4400 2600
Wire Wire Line
	3900 5700 4000 5700
Wire Wire Line
	3900 5800 3900 5700
Wire Wire Line
	3300 2500 3300 2600
Wire Wire Line
	5600 2400 5600 2600
Text GLabel 6800 2000 1    47   Input ~ 0
I_SENS
$Comp
L C C311
U 1 1 58C3BFC2
P 6800 2350
F 0 "C311" H 6850 2450 50  0000 L CNN
F 1 "10n" H 6850 2250 50  0000 L CNN
F 2 "Local:C_0603" H 6838 2200 30  0001 C CNN
F 3 "" H 6800 2350 60  0000 C CNN
	1    6800 2350
	1    0    0    -1  
$EndComp
$Comp
L R R316
U 1 1 58C3BFC9
P 6550 2100
F 0 "R316" V 6630 2100 50  0000 C CNN
F 1 "1K" V 6557 2101 50  0000 C CNN
F 2 "Local:R_0603" V 6480 2100 30  0001 C CNN
F 3 "" H 6550 2100 30  0000 C CNN
	1    6550 2100
	0    1    -1   0   
$EndComp
Wire Wire Line
	6800 2000 6800 2200
Wire Wire Line
	6700 2100 6800 2100
Connection ~ 6800 2100
Wire Wire Line
	6800 2500 6800 2600
$Comp
L GND #PWR068
U 1 1 58C3BFD4
P 6800 2600
F 0 "#PWR068" H 6800 2350 60  0001 C CNN
F 1 "GND" H 6800 2450 60  0000 C CNN
F 2 "" H 6800 2600 60  0000 C CNN
F 3 "" H 6800 2600 60  0000 C CNN
	1    6800 2600
	1    0    0    -1  
$EndComp
$Comp
L R R302
U 1 1 58C3BFDA
P 3550 2100
F 0 "R302" V 3630 2100 50  0000 C CNN
F 1 "1K" V 3557 2101 50  0000 C CNN
F 2 "Local:R_0603" V 3480 2100 30  0001 C CNN
F 3 "" H 3550 2100 30  0000 C CNN
	1    3550 2100
	0    -1   -1   0   
$EndComp
$Comp
L C C300
U 1 1 58C3BFE1
P 3800 2350
F 0 "C300" H 3850 2450 50  0000 L CNN
F 1 "10n" H 3850 2250 50  0000 L CNN
F 2 "Local:C_0603" H 3838 2200 30  0001 C CNN
F 3 "" H 3800 2350 60  0000 C CNN
	1    3800 2350
	-1   0    0    -1  
$EndComp
Wire Wire Line
	3800 2500 3800 2600
$Comp
L GND #PWR069
U 1 1 58C3BFE9
P 3800 2600
F 0 "#PWR069" H 3800 2350 60  0001 C CNN
F 1 "GND" H 3800 2450 60  0000 C CNN
F 2 "" H 3800 2600 60  0000 C CNN
F 3 "" H 3800 2600 60  0000 C CNN
	1    3800 2600
	-1   0    0    -1  
$EndComp
Wire Wire Line
	3700 2100 3800 2100
Wire Wire Line
	3800 2000 3800 2200
Text GLabel 3800 2000 1    47   Input ~ 0
U_SENS
Connection ~ 3800 2100
Wire Wire Line
	3200 6000 3200 5900
Wire Wire Line
	3200 4800 3200 4700
Text GLabel 3200 5900 1    47   Input ~ 0
DRV_L
Text GLabel 3200 4700 1    47   Input ~ 0
DRV_H
Text GLabel 3900 5500 0    47   Input ~ 0
DRV_H
Text GLabel 3900 5600 0    47   Input ~ 0
DRV_L
Wire Wire Line
	4000 5500 3900 5500
Wire Wire Line
	4000 5600 3900 5600
$Comp
L CONN_01X02 P320
U 1 1 58C3EAED
P 9400 3250
F 0 "P320" H 9400 3100 50  0000 C CNN
F 1 "TEMP1" V 9500 3250 50  0000 C CNN
F 2 "Local:Molex_KK-6410-02_02x2.54mm_Straight" H 9400 3250 60  0001 C CNN
F 3 "" H 9400 3250 60  0000 C CNN
	1    9400 3250
	1    0    0    1   
$EndComp
$Comp
L R R320
U 1 1 58C3EAF4
P 9100 3550
F 0 "R320" V 9180 3550 50  0000 C CNN
F 1 "4K7" V 9107 3551 50  0000 C CNN
F 2 "Local:R_0603" V 9030 3550 30  0001 C CNN
F 3 "" H 9100 3550 30  0000 C CNN
	1    9100 3550
	-1   0    0    -1  
$EndComp
$Comp
L C C320
U 1 1 58C3EAFB
P 8600 3550
F 0 "C320" H 8650 3650 50  0000 L CNN
F 1 "10n" H 8650 3450 50  0000 L CNN
F 2 "Local:C_0603" H 8638 3400 30  0001 C CNN
F 3 "" H 8600 3550 60  0000 C CNN
	1    8600 3550
	1    0    0    -1  
$EndComp
$Comp
L GND #PWR070
U 1 1 58C3EB02
P 9100 3800
F 0 "#PWR070" H 9100 3550 60  0001 C CNN
F 1 "GND" H 9100 3650 60  0000 C CNN
F 2 "" H 9100 3800 60  0000 C CNN
F 3 "" H 9100 3800 60  0000 C CNN
	1    9100 3800
	1    0    0    -1  
$EndComp
$Comp
L CONN_01X02 P330
U 1 1 58C3EB08
P 9400 1850
F 0 "P330" H 9400 1700 50  0000 C CNN
F 1 "TEMP2" V 9500 1850 50  0000 C CNN
F 2 "Local:Molex_KK-6410-02_02x2.54mm_Straight" H 9400 1850 60  0001 C CNN
F 3 "" H 9400 1850 60  0000 C CNN
	1    9400 1850
	1    0    0    1   
$EndComp
$Comp
L R R330
U 1 1 58C3EB0F
P 9100 2150
F 0 "R330" V 9180 2150 50  0000 C CNN
F 1 "4K7" V 9107 2151 50  0000 C CNN
F 2 "Local:R_0603" V 9030 2150 30  0001 C CNN
F 3 "" H 9100 2150 30  0000 C CNN
	1    9100 2150
	-1   0    0    -1  
$EndComp
$Comp
L C C330
U 1 1 58C3EB16
P 8600 2150
F 0 "C330" H 8650 2250 50  0000 L CNN
F 1 "10n" H 8650 2050 50  0000 L CNN
F 2 "Local:C_0603" H 8638 2000 30  0001 C CNN
F 3 "" H 8600 2150 60  0000 C CNN
	1    8600 2150
	1    0    0    -1  
$EndComp
$Comp
L GND #PWR071
U 1 1 58C3EB1D
P 9100 2400
F 0 "#PWR071" H 9100 2150 60  0001 C CNN
F 1 "GND" H 9100 2250 60  0000 C CNN
F 2 "" H 9100 2400 60  0000 C CNN
F 3 "" H 9100 2400 60  0000 C CNN
	1    9100 2400
	1    0    0    -1  
$EndComp
Text GLabel 8600 1800 1    47   Input ~ 0
T2_SENS
Text GLabel 8600 3200 1    47   Input ~ 0
T1_SENS
Text GLabel 9100 3100 1    47   Input ~ 0
+3V3A
Text GLabel 9100 1700 1    47   Input ~ 0
+3V3A
Wire Wire Line
	9000 3300 9200 3300
Wire Wire Line
	9200 3200 9100 3200
Wire Wire Line
	9100 1800 9100 1700
Wire Wire Line
	9200 1800 9100 1800
Wire Wire Line
	9100 3200 9100 3100
Wire Wire Line
	9100 3300 9100 3400
$Comp
L R R321
U 1 1 58C3EB2D
P 8850 3300
F 0 "R321" V 8930 3300 50  0000 C CNN
F 1 "1K" V 8857 3301 50  0000 C CNN
F 2 "Local:R_0603" V 8780 3300 30  0001 C CNN
F 3 "" H 8850 3300 30  0000 C CNN
	1    8850 3300
	0    1    -1   0   
$EndComp
Connection ~ 9100 3300
Wire Wire Line
	9100 3700 9100 3800
Wire Wire Line
	8700 3300 8600 3300
Wire Wire Line
	8600 3200 8600 3400
Connection ~ 8600 3300
Wire Wire Line
	8600 3700 8600 3800
$Comp
L GND #PWR072
U 1 1 58C3EB3A
P 8600 3800
F 0 "#PWR072" H 8600 3550 60  0001 C CNN
F 1 "GND" H 8600 3650 60  0000 C CNN
F 2 "" H 8600 3800 60  0000 C CNN
F 3 "" H 8600 3800 60  0000 C CNN
	1    8600 3800
	1    0    0    -1  
$EndComp
$Comp
L R R331
U 1 1 58C3EB40
P 8850 1900
F 0 "R331" V 8930 1900 50  0000 C CNN
F 1 "1K" V 8857 1901 50  0000 C CNN
F 2 "Local:R_0603" V 8780 1900 30  0001 C CNN
F 3 "" H 8850 1900 30  0000 C CNN
	1    8850 1900
	0    1    -1   0   
$EndComp
$Comp
L GND #PWR073
U 1 1 58C3EB47
P 8600 2400
F 0 "#PWR073" H 8600 2150 60  0001 C CNN
F 1 "GND" H 8600 2250 60  0000 C CNN
F 2 "" H 8600 2400 60  0000 C CNN
F 3 "" H 8600 2400 60  0000 C CNN
	1    8600 2400
	1    0    0    -1  
$EndComp
Wire Wire Line
	9000 1900 9200 1900
Wire Wire Line
	9100 1900 9100 2000
Connection ~ 9100 1900
Wire Wire Line
	9100 2300 9100 2400
Wire Wire Line
	8600 2400 8600 2300
Wire Wire Line
	8700 1900 8600 1900
Wire Wire Line
	8600 1800 8600 2000
Connection ~ 8600 1900
Text Notes 9550 1300 2    60   ~ 0
TEMPERATURE SENSORS
$Comp
L Q_NPN_BEC Q350
U 1 1 58C3FFF1
P 7100 5100
F 0 "Q350" H 7300 5150 50  0000 L CNN
F 1 "SS9013" H 7300 5050 50  0000 L CNN
F 2 "Local:SOT-23" H 7300 5200 29  0001 C CNN
F 3 "" H 7100 5100 60  0000 C CNN
	1    7100 5100
	1    0    0    -1  
$EndComp
$Comp
L GND #PWR074
U 1 1 58C3FFF8
P 7200 5400
F 0 "#PWR074" H 7200 5150 60  0001 C CNN
F 1 "GND" H 7200 5250 60  0000 C CNN
F 2 "" H 7200 5400 60  0000 C CNN
F 3 "" H 7200 5400 60  0000 C CNN
	1    7200 5400
	-1   0    0    -1  
$EndComp
$Comp
L R R350
U 1 1 58C3FFFE
P 6650 5100
F 0 "R350" V 6730 5100 50  0000 C CNN
F 1 "1K" V 6657 5101 50  0000 C CNN
F 2 "Local:R_0603" V 6580 5100 30  0001 C CNN
F 3 "" H 6650 5100 30  0000 C CNN
	1    6650 5100
	0    1    -1   0   
$EndComp
$Comp
L CONN_01X02 P350
U 1 1 58C40005
P 7500 4750
F 0 "P350" H 7500 4600 50  0000 C CNN
F 1 "FAN" V 7600 4750 50  0000 C CNN
F 2 "Local:Molex_KK-6410-02_02x2.54mm_Straight" H 7500 4750 60  0001 C CNN
F 3 "" H 7500 4750 60  0000 C CNN
	1    7500 4750
	1    0    0    1   
$EndComp
Text GLabel 6400 5100 0    47   Input ~ 0
FAN_PWM
Wire Wire Line
	7100 4800 7300 4800
Wire Wire Line
	6500 5100 6400 5100
Wire Wire Line
	6900 5100 6800 5100
Wire Wire Line
	7200 4900 7200 4800
Wire Wire Line
	7200 5300 7200 5400
$Comp
L D D350
U 1 1 58C40014
P 6950 4800
F 0 "D350" H 6950 4900 50  0000 C CNN
F 1 "FR107" H 6950 4700 50  0000 C CNN
F 2 "Local:D_SOD-123" H 6950 4800 50  0001 C CNN
F 3 "" H 6950 4800 50  0000 C CNN
	1    6950 4800
	1    0    0    -1  
$EndComp
Connection ~ 7200 4800
Wire Wire Line
	6700 4800 6800 4800
Text Notes 6400 4000 0    60   ~ 0
BOX FAN CONTROL
Text Notes 5000 1300 0    60   ~ 0
CURRENT SENSOR
Text Notes 3150 1300 0    60   ~ 0
VOLTAGE SENSOR
Wire Wire Line
	7300 4700 7200 4700
Wire Wire Line
	7200 4700 7200 4600
Wire Wire Line
	6700 4800 6700 4600
$Comp
L +12V #PWR075
U 1 1 58C3ECCF
P 7200 4600
F 0 "#PWR075" H 7200 4450 50  0001 C CNN
F 1 "+12V" H 7200 4740 50  0000 C CNN
F 2 "" H 7200 4600 50  0000 C CNN
F 3 "" H 7200 4600 50  0000 C CNN
	1    7200 4600
	1    0    0    -1  
$EndComp
$Comp
L +12V #PWR076
U 1 1 58C3ED41
P 6700 4600
F 0 "#PWR076" H 6700 4450 50  0001 C CNN
F 1 "+12V" H 6700 4740 50  0000 C CNN
F 2 "" H 6700 4600 50  0000 C CNN
F 3 "" H 6700 4600 50  0000 C CNN
	1    6700 4600
	1    0    0    -1  
$EndComp
$Comp
L R R317
U 1 1 58C430E8
P 6300 2350
F 0 "R317" V 6380 2350 50  0000 C CNN
F 1 "10K" V 6307 2351 50  0000 C CNN
F 2 "Local:R_0603" V 6230 2350 30  0001 C CNN
F 3 "" H 6300 2350 30  0000 C CNN
	1    6300 2350
	-1   0    0    1   
$EndComp
Wire Wire Line
	6300 2500 6300 2600
$Comp
L GND #PWR077
U 1 1 58C43359
P 6300 2600
F 0 "#PWR077" H 6300 2350 60  0001 C CNN
F 1 "GND" H 6300 2450 60  0000 C CNN
F 2 "" H 6300 2600 60  0000 C CNN
F 3 "" H 6300 2600 60  0000 C CNN
	1    6300 2600
	1    0    0    -1  
$EndComp
Wire Wire Line
	6300 2100 6300 2200
Connection ~ 6300 2100
$Comp
L C C312
U 1 1 58D00837
P 5000 3150
F 0 "C312" H 5050 3250 50  0000 L CNN
F 1 "330p" H 5050 3050 50  0000 L CNN
F 2 "Local:C_0603" H 5038 3000 30  0001 C CNN
F 3 "" H 5000 3150 60  0000 C CNN
	1    5000 3150
	-1   0    0    -1  
$EndComp
Text GLabel 5000 2900 1    47   Input ~ 0
I_IN0
Text GLabel 5000 3400 3    47   Input ~ 0
I_IN1
Wire Wire Line
	5000 3300 5000 3400
Wire Wire Line
	5000 3000 5000 2900
Text Notes 5300 4950 0    60   ~ 0
TODO: Connect to timer 3 or 4
$EndSCHEMATC
