EESchema Schematic File Version 2
LIBS:power
LIBS:device
LIBS:transistors
LIBS:conn
LIBS:linear
LIBS:regul
LIBS:74xx
LIBS:cmos4000
LIBS:adc-dac
LIBS:memory
LIBS:xilinx
LIBS:microcontrollers
LIBS:dsp
LIBS:microchip
LIBS:analog_switches
LIBS:motorola
LIBS:texas
LIBS:intel
LIBS:audio
LIBS:interface
LIBS:digital-audio
LIBS:philips
LIBS:display
LIBS:cypress
LIBS:siliconi
LIBS:opto
LIBS:atmel
LIBS:contrib
LIBS:valves
LIBS:stm32
LIBS:tl494
LIBS:handler
LIBS:lph7366
LIBS:iface
LIBS:radio
EELAYER 25 0
EELAYER END
$Descr A4 11693 8268
encoding utf-8
Sheet 2 3
Title ""
Date ""
Rev ""
Comp ""
Comment1 ""
Comment2 ""
Comment3 ""
Comment4 ""
$EndDescr
$Comp
L RJ12 J210
U 1 1 58C31D64
P 6850 3800
F 0 "J210" V 6450 3800 60  0000 C CNN
F 1 "RS485" V 7300 3700 60  0000 C CNN
F 2 "Local:RJ12" H 6850 3800 60  0001 C CNN
F 3 "" H 6850 3800 60  0000 C CNN
	1    6850 3800
	0    1    1    0   
$EndComp
$Comp
L GND #PWR039
U 1 1 58C31D6B
P 6300 4200
F 0 "#PWR039" H 6300 3950 50  0001 C CNN
F 1 "GND" H 6300 4050 50  0000 C CNN
F 2 "" H 6300 4200 60  0000 C CNN
F 3 "" H 6300 4200 60  0000 C CNN
	1    6300 4200
	1    0    0    -1  
$EndComp
$Comp
L GND #PWR040
U 1 1 58C31D71
P 5100 4000
F 0 "#PWR040" H 5100 3750 50  0001 C CNN
F 1 "GND" H 5100 3850 50  0000 C CNN
F 2 "" H 5100 4000 60  0000 C CNN
F 3 "" H 5100 4000 60  0000 C CNN
	1    5100 4000
	1    0    0    -1  
$EndComp
$Comp
L MAX485 U210
U 1 1 58C31D77
P 4600 3750
F 0 "U210" H 4600 4050 60  0000 C CNN
F 1 "MAX485" H 4600 3450 60  0000 C CNN
F 2 "Local:SOIC-8_3.9x4.9mm_Pitch1.27mm" H 4440 3750 60  0001 C CNN
F 3 "" H 4440 3750 60  0000 C CNN
	1    4600 3750
	1    0    0    -1  
$EndComp
$Comp
L +3V3 #PWR041
U 1 1 58C31D7E
P 5100 3500
F 0 "#PWR041" H 5100 3350 50  0001 C CNN
F 1 "+3V3" H 5100 3640 50  0000 C CNN
F 2 "" H 5100 3500 60  0000 C CNN
F 3 "" H 5100 3500 60  0000 C CNN
	1    5100 3500
	1    0    0    -1  
$EndComp
Text GLabel 5100 3700 2    47   Input ~ 0
RS485_B
Text GLabel 5100 3800 2    47   Input ~ 0
RS485_A
Text GLabel 4100 3600 0    47   Input ~ 0
RS485_RO
Text GLabel 4100 3900 0    47   Input ~ 0
RS485_DI
Text GLabel 4100 3700 0    47   Input ~ 0
~RS485_RE
Text GLabel 4100 3800 0    47   Input ~ 0
RS485_DE
Text GLabel 6200 3700 0    47   Input ~ 0
RS485_B
Text GLabel 6200 3900 0    47   Input ~ 0
RS485_A
$Comp
L C C210
U 1 1 58C31D8C
P 5600 3750
F 0 "C210" H 5625 3850 50  0000 L CNN
F 1 "100n" H 5625 3650 50  0000 L CNN
F 2 "Local:C_0603" H 5638 3600 30  0001 C CNN
F 3 "" H 5600 3750 60  0000 C CNN
	1    5600 3750
	1    0    0    -1  
$EndComp
$Comp
L +3V3 #PWR042
U 1 1 58C31D93
P 5600 3500
F 0 "#PWR042" H 5600 3350 50  0001 C CNN
F 1 "+3V3" H 5600 3640 50  0000 C CNN
F 2 "" H 5600 3500 60  0000 C CNN
F 3 "" H 5600 3500 60  0000 C CNN
	1    5600 3500
	1    0    0    -1  
$EndComp
$Comp
L GND #PWR043
U 1 1 58C31D99
P 5600 4000
F 0 "#PWR043" H 5600 3750 50  0001 C CNN
F 1 "GND" H 5600 3850 50  0000 C CNN
F 2 "" H 5600 4000 60  0000 C CNN
F 3 "" H 5600 4000 60  0000 C CNN
	1    5600 4000
	1    0    0    -1  
$EndComp
$Comp
L +3V3 #PWR044
U 1 1 58C31D9F
P 6300 3500
F 0 "#PWR044" H 6300 3350 50  0001 C CNN
F 1 "+3V3" H 6300 3640 50  0000 C CNN
F 2 "" H 6300 3500 60  0000 C CNN
F 3 "" H 6300 3500 60  0000 C CNN
	1    6300 3500
	1    0    0    -1  
$EndComp
NoConn ~ 6400 3600
NoConn ~ 6400 4100
Wire Wire Line
	5600 4000 5600 3900
Wire Wire Line
	5600 3600 5600 3500
Wire Wire Line
	4200 3900 4100 3900
Wire Wire Line
	4200 3800 4100 3800
Wire Wire Line
	4200 3700 4100 3700
Wire Wire Line
	4200 3600 4100 3600
Wire Wire Line
	5000 3800 5100 3800
Wire Wire Line
	5000 3700 5100 3700
Wire Wire Line
	5100 3600 5100 3500
Wire Wire Line
	5000 3600 5100 3600
Wire Wire Line
	5100 3900 5000 3900
Wire Wire Line
	6400 4000 6300 4000
Wire Wire Line
	6300 4000 6300 4200
Wire Wire Line
	6300 3500 6300 3800
Wire Wire Line
	6300 3800 6400 3800
Wire Wire Line
	6400 3700 6200 3700
Wire Wire Line
	6400 3900 6200 3900
Wire Wire Line
	5100 3900 5100 4000
Text Notes 4900 3200 0    60   ~ 0
RS485 WIRED INTERFACE
$Comp
L EC11E E200
U 1 1 58C32FE8
P 7300 2100
F 0 "E200" H 7500 2400 60  0000 C CNN
F 1 "TUNER" H 7300 1850 60  0000 C CNN
F 2 "Local:EC11E" H 7350 2100 60  0001 C CNN
F 3 "" H 7350 2100 60  0000 C CNN
	1    7300 2100
	1    0    0    -1  
$EndComp
Text GLabel 6700 2000 0    47   Input ~ 0
ENC_A
Text GLabel 6700 2200 0    47   Input ~ 0
ENC_B
Text GLabel 7800 2000 2    47   Input ~ 0
ENC_P
$Comp
L LPH7366 U200
U 1 1 58C32FF2
P 4500 1600
F 0 "U200" H 4500 2150 60  0000 C CNN
F 1 "LPH7366" V 4600 1600 60  0000 C CNN
F 2 "Local:LPH-7366" H 4300 1500 60  0001 C CNN
F 3 "" H 4300 1500 60  0000 C CNN
	1    4500 1600
	1    0    0    -1  
$EndComp
$Comp
L C C201
U 1 1 58C32FF9
P 3600 2150
F 0 "C201" H 3600 2250 50  0000 L CNN
F 1 "100n" H 3600 2050 50  0000 L CNN
F 2 "Local:C_0603" H 3638 2000 30  0001 C CNN
F 3 "" H 3600 2150 60  0000 C CNN
	1    3600 2150
	-1   0    0    -1  
$EndComp
$Comp
L LED D200
U 1 1 58C33000
P 5200 1500
F 0 "D200" H 5200 1600 50  0000 C CNN
F 1 "LED" H 5200 1400 50  0000 C CNN
F 2 "Local:LED_0603" H 5200 1500 60  0001 C CNN
F 3 "" H 5200 1500 60  0000 C CNN
	1    5200 1500
	0    -1   -1   0   
$EndComp
$Comp
L LED D201
U 1 1 58C33007
P 5500 1500
F 0 "D201" H 5500 1600 50  0000 C CNN
F 1 "LED" H 5500 1400 50  0000 C CNN
F 2 "Local:LED_0603" H 5500 1500 60  0001 C CNN
F 3 "" H 5500 1500 60  0000 C CNN
	1    5500 1500
	0    -1   -1   0   
$EndComp
$Comp
L LED D202
U 1 1 58C3300E
P 5800 1500
F 0 "D202" H 5800 1600 50  0000 C CNN
F 1 "LED" H 5800 1400 50  0000 C CNN
F 2 "Local:LED_0603" H 5800 1500 60  0001 C CNN
F 3 "" H 5800 1500 60  0000 C CNN
	1    5800 1500
	0    -1   -1   0   
$EndComp
$Comp
L LED D203
U 1 1 58C33015
P 6100 1500
F 0 "D203" H 6100 1600 50  0000 C CNN
F 1 "LED" H 6100 1400 50  0000 C CNN
F 2 "Local:LED_0603" H 6100 1500 60  0001 C CNN
F 3 "" H 6100 1500 60  0000 C CNN
	1    6100 1500
	0    -1   -1   0   
$EndComp
$Comp
L R R200
U 1 1 58C3301C
P 5550 2100
F 0 "R200" V 5630 2100 50  0000 C CNN
F 1 "1K" V 5557 2101 50  0000 C CNN
F 2 "Local:R_0603" V 5480 2100 30  0001 C CNN
F 3 "" H 5550 2100 30  0000 C CNN
	1    5550 2100
	0    -1   -1   0   
$EndComp
$Comp
L C C200
U 1 1 58C33023
P 3200 1450
F 0 "C200" H 3250 1550 50  0000 L CNN
F 1 "100n" H 3250 1350 50  0000 L CNN
F 2 "Local:C_0603" H 3238 1300 30  0001 C CNN
F 3 "" H 3200 1450 60  0000 C CNN
	1    3200 1450
	1    0    0    -1  
$EndComp
$Comp
L Q_NPN_BEC Q200
U 1 1 58C3302A
P 6000 2100
F 0 "Q200" H 5850 2250 50  0000 L CNN
F 1 "SS9013" H 5750 1900 50  0000 L CNN
F 2 "Local:SOT-23" H 6200 2200 50  0001 C CNN
F 3 "" H 6000 2100 50  0000 C CNN
	1    6000 2100
	1    0    0    -1  
$EndComp
$Comp
L GND #PWR045
U 1 1 58C33031
P 3600 2500
F 0 "#PWR045" H 3600 2250 60  0001 C CNN
F 1 "GND" H 3600 2350 60  0000 C CNN
F 2 "" H 3600 2500 60  0000 C CNN
F 3 "" H 3600 2500 60  0000 C CNN
	1    3600 2500
	1    0    0    -1  
$EndComp
$Comp
L GND #PWR046
U 1 1 58C33037
P 6100 2500
F 0 "#PWR046" H 6100 2250 60  0001 C CNN
F 1 "GND" H 6100 2350 60  0000 C CNN
F 2 "" H 6100 2500 60  0000 C CNN
F 3 "" H 6100 2500 60  0000 C CNN
	1    6100 2500
	1    0    0    -1  
$EndComp
$Comp
L +3V3 #PWR047
U 1 1 58C3303D
P 3500 1100
F 0 "#PWR047" H 3500 950 60  0001 C CNN
F 1 "+3V3" H 3500 1240 60  0000 C CNN
F 2 "" H 3500 1100 60  0000 C CNN
F 3 "" H 3500 1100 60  0000 C CNN
	1    3500 1100
	1    0    0    -1  
$EndComp
$Comp
L +3V3 #PWR048
U 1 1 58C33043
P 6100 1100
F 0 "#PWR048" H 6100 950 60  0001 C CNN
F 1 "+3V3" H 6100 1240 60  0000 C CNN
F 2 "" H 6100 1100 60  0000 C CNN
F 3 "" H 6100 1100 60  0000 C CNN
	1    6100 1100
	1    0    0    -1  
$EndComp
Text GLabel 5300 2100 0    47   Input ~ 0
LCD_BLC
Text GLabel 4000 1300 0    47   Input ~ 0
LCD_SCLK
Text GLabel 4000 1400 0    47   Input ~ 0
LCD_MOSI
Text GLabel 4000 1500 0    47   Input ~ 0
LCD_D~C
Text GLabel 4000 1600 0    47   Input ~ 0
~LCD_CS
Text GLabel 4000 2000 0    47   Input ~ 0
~LCD_RES
Connection ~ 3600 2400
Connection ~ 3400 2400
Wire Wire Line
	3200 2400 4500 2400
Wire Wire Line
	3400 1800 3400 2400
Wire Wire Line
	3400 1800 4100 1800
Connection ~ 6100 1200
Connection ~ 6100 1800
Wire Wire Line
	4500 2400 4500 2250
Wire Wire Line
	4100 2000 4000 2000
Wire Wire Line
	3200 1200 3200 1300
Wire Wire Line
	3200 1600 3200 2400
Wire Wire Line
	3600 2300 3600 2500
Wire Wire Line
	3500 1700 4100 1700
Wire Wire Line
	5800 2100 5700 2100
Wire Wire Line
	5400 2100 5300 2100
Wire Wire Line
	6100 2300 6100 2500
Connection ~ 5800 1200
Wire Wire Line
	6100 1100 6100 1300
Connection ~ 5500 1200
Wire Wire Line
	5800 1200 5800 1300
Wire Wire Line
	5500 1200 5500 1300
Wire Wire Line
	5200 1200 6100 1200
Wire Wire Line
	5200 1300 5200 1200
Connection ~ 5800 1800
Wire Wire Line
	6100 1700 6100 1900
Connection ~ 5500 1800
Wire Wire Line
	5800 1800 5800 1700
Wire Wire Line
	5500 1800 5500 1700
Wire Wire Line
	5200 1800 6100 1800
Wire Wire Line
	5200 1700 5200 1800
Wire Wire Line
	4000 1600 4100 1600
Wire Wire Line
	4000 1500 4100 1500
Wire Wire Line
	4000 1400 4100 1400
Wire Wire Line
	4000 1300 4100 1300
Connection ~ 3500 1200
Wire Wire Line
	3600 1900 3600 2000
Wire Wire Line
	4100 1900 3600 1900
Wire Wire Line
	3500 1100 3500 1700
Wire Wire Line
	3200 1200 4100 1200
Connection ~ 7800 2200
Wire Wire Line
	7700 2100 7800 2100
Wire Wire Line
	7800 2400 6800 2400
Wire Wire Line
	6800 2100 6800 2500
Wire Wire Line
	6800 2100 6900 2100
Connection ~ 6800 2400
Wire Wire Line
	7700 2000 7800 2000
Wire Wire Line
	6700 2000 6900 2000
Wire Wire Line
	6900 2200 6700 2200
Wire Wire Line
	7700 2200 7800 2200
Wire Wire Line
	7800 2100 7800 2400
$Comp
L GND #PWR049
U 1 1 58C330B5
P 6800 2500
F 0 "#PWR049" H 6800 2250 60  0001 C CNN
F 1 "GND" H 6800 2350 60  0000 C CNN
F 2 "" H 6800 2500 60  0000 C CNN
F 3 "" H 6800 2500 60  0000 C CNN
	1    6800 2500
	1    0    0    -1  
$EndComp
Text Notes 5100 850  0    60   ~ 0
USER INTERFACE PANEL
$Comp
L ESP-12 U220
U 1 1 58C355E5
P 5400 5450
F 0 "U220" H 5400 5950 60  0000 C CNN
F 1 "ESP-12" H 5400 4950 60  0000 C CNN
F 2 "Local:ESP-12" H 5400 5450 60  0001 C CNN
F 3 "" H 5400 5450 60  0000 C CNN
	1    5400 5450
	1    0    0    -1  
$EndComp
$Comp
L C C221
U 1 1 58C355EC
P 5800 6750
F 0 "C221" H 5825 6850 50  0000 L CNN
F 1 "47u" H 5825 6650 50  0000 L CNN
F 2 "Local:C_1206" H 5838 6600 30  0001 C CNN
F 3 "" H 5800 6750 60  0000 C CNN
	1    5800 6750
	-1   0    0    -1  
$EndComp
$Comp
L C C220
U 1 1 58C355F3
P 5400 6750
F 0 "C220" H 5425 6850 50  0000 L CNN
F 1 "100n" H 5425 6650 50  0000 L CNN
F 2 "Local:C_0603" H 5438 6600 30  0001 C CNN
F 3 "" H 5400 6750 60  0000 C CNN
	1    5400 6750
	-1   0    0    -1  
$EndComp
$Comp
L SW_PUSH_SMALL SW220
U 1 1 58C355FA
P 6300 6800
F 0 "SW220" H 6450 6910 50  0000 C CNN
F 1 "FLASH" H 6500 6800 50  0000 C CNN
F 2 "Local:MICRO_SW" H 6300 6800 50  0001 C CNN
F 3 "" H 6300 6800 50  0000 C CNN
	1    6300 6800
	1    0    0    -1  
$EndComp
$Comp
L R R220
U 1 1 58C35601
P 4500 6450
F 0 "R220" V 4580 6450 50  0000 C CNN
F 1 "10K" V 4507 6451 50  0000 C CNN
F 2 "Local:R_0603" V 4430 6450 30  0001 C CNN
F 3 "" H 4500 6450 30  0000 C CNN
	1    4500 6450
	-1   0    0    1   
$EndComp
NoConn ~ 6600 5400
NoConn ~ 6600 5600
$Comp
L R R221
U 1 1 58C3560A
P 4900 6750
F 0 "R221" V 4980 6750 50  0000 C CNN
F 1 "1K" V 4907 6751 50  0000 C CNN
F 2 "Local:R_0603" V 4830 6750 30  0001 C CNN
F 3 "" H 4900 6750 30  0000 C CNN
	1    4900 6750
	-1   0    0    1   
$EndComp
$Comp
L +3V3 #PWR050
U 1 1 58C35611
P 4200 5800
F 0 "#PWR050" H 4200 5650 60  0001 C CNN
F 1 "+3V3" V 4100 5850 60  0000 C CNN
F 2 "" H 4200 5800 60  0000 C CNN
F 3 "" H 4200 5800 60  0000 C CNN
	1    4200 5800
	0    -1   -1   0   
$EndComp
Text GLabel 4200 5100 0    47   Input ~ 0
~WRT_RESET
Text GLabel 4200 5300 0    47   Input ~ 0
WRT_POWER
Text GLabel 4200 5400 0    47   Input ~ 0
~WRT_RESET
Text GLabel 6600 5100 2    47   Input ~ 0
WRT_TX
Text GLabel 6600 5200 2    47   Input ~ 0
WRT_RX
Text GLabel 6600 5500 2    47   Input ~ 0
~WRT_FLASH
Text GLabel 6600 5700 2    47   Input ~ 0
WRT_BOOT0
$Comp
L GND #PWR051
U 1 1 58C3561E
P 6600 5900
F 0 "#PWR051" H 6600 5650 50  0001 C CNN
F 1 "GND" H 6600 5750 50  0000 C CNN
F 2 "" H 6600 5900 60  0000 C CNN
F 3 "" H 6600 5900 60  0000 C CNN
	1    6600 5900
	1    0    0    -1  
$EndComp
Text GLabel 6200 6600 1    47   Input ~ 0
~WRT_FLASH
$Comp
L GND #PWR052
U 1 1 58C35625
P 6400 7000
F 0 "#PWR052" H 6400 6750 50  0001 C CNN
F 1 "GND" H 6400 6850 50  0000 C CNN
F 2 "" H 6400 7000 60  0000 C CNN
F 3 "" H 6400 7000 60  0000 C CNN
	1    6400 7000
	1    0    0    -1  
$EndComp
Text GLabel 4900 6500 1    47   Input ~ 0
WRT_BOOT0
Text GLabel 4500 6700 3    47   Input ~ 0
WRT_POWER
$Comp
L +3V3 #PWR053
U 1 1 58C3562D
P 4500 6200
F 0 "#PWR053" H 4500 6050 60  0001 C CNN
F 1 "+3V3" H 4500 6350 60  0000 C CNN
F 2 "" H 4500 6200 60  0000 C CNN
F 3 "" H 4500 6200 60  0000 C CNN
	1    4500 6200
	1    0    0    -1  
$EndComp
$Comp
L GND #PWR054
U 1 1 58C35633
P 4900 7000
F 0 "#PWR054" H 4900 6750 50  0001 C CNN
F 1 "GND" H 4900 6850 50  0000 C CNN
F 2 "" H 4900 7000 60  0000 C CNN
F 3 "" H 4900 7000 60  0000 C CNN
	1    4900 7000
	1    0    0    -1  
$EndComp
$Comp
L GND #PWR055
U 1 1 58C35639
P 5400 7000
F 0 "#PWR055" H 5400 6750 50  0001 C CNN
F 1 "GND" H 5400 6850 50  0000 C CNN
F 2 "" H 5400 7000 60  0000 C CNN
F 3 "" H 5400 7000 60  0000 C CNN
	1    5400 7000
	1    0    0    -1  
$EndComp
$Comp
L GND #PWR056
U 1 1 58C3563F
P 5800 7000
F 0 "#PWR056" H 5800 6750 50  0001 C CNN
F 1 "GND" H 5800 6850 50  0000 C CNN
F 2 "" H 5800 7000 60  0000 C CNN
F 3 "" H 5800 7000 60  0000 C CNN
	1    5800 7000
	1    0    0    -1  
$EndComp
NoConn ~ 4200 5700
NoConn ~ 4200 5600
NoConn ~ 4200 5200
Text GLabel 4200 5500 0    47   Input ~ 0
WRT_READY
$Comp
L +3V3 #PWR057
U 1 1 58C3564A
P 5400 6500
F 0 "#PWR057" H 5400 6350 60  0001 C CNN
F 1 "+3V3" H 5400 6650 60  0000 C CNN
F 2 "" H 5400 6500 60  0000 C CNN
F 3 "" H 5400 6500 60  0000 C CNN
	1    5400 6500
	1    0    0    -1  
$EndComp
$Comp
L +3V3 #PWR058
U 1 1 58C35650
P 5800 6500
F 0 "#PWR058" H 5800 6350 60  0001 C CNN
F 1 "+3V3" H 5800 6650 60  0000 C CNN
F 2 "" H 5800 6500 60  0000 C CNN
F 3 "" H 5800 6500 60  0000 C CNN
	1    5800 6500
	1    0    0    -1  
$EndComp
Wire Wire Line
	6400 6900 6400 7000
Wire Wire Line
	4900 6900 4900 7000
Wire Wire Line
	6600 5800 6600 5900
Wire Wire Line
	4900 6600 4900 6500
Wire Wire Line
	6500 5700 6600 5700
Wire Wire Line
	4500 6600 4500 6700
Wire Wire Line
	4500 6300 4500 6200
Wire Wire Line
	6200 6700 6200 6600
Wire Wire Line
	6500 5600 6600 5600
Wire Wire Line
	6500 5400 6600 5400
Wire Wire Line
	6500 5300 6600 5300
Wire Wire Line
	4300 5600 4200 5600
Wire Wire Line
	4300 5500 4200 5500
Wire Wire Line
	4300 5200 4200 5200
Wire Wire Line
	5400 7000 5400 6900
Wire Wire Line
	5400 6600 5400 6500
Wire Wire Line
	6500 5500 6600 5500
Wire Wire Line
	4300 5700 4200 5700
Wire Wire Line
	4300 5400 4200 5400
Wire Wire Line
	5800 6500 5800 6600
Wire Wire Line
	5800 6900 5800 7000
Wire Wire Line
	4300 5100 4200 5100
Wire Wire Line
	4300 5300 4200 5300
Wire Wire Line
	6500 5800 6600 5800
Wire Wire Line
	4300 5800 4200 5800
Wire Wire Line
	6600 5200 6500 5200
Wire Wire Line
	6600 5100 6500 5100
Text Notes 5950 4800 2    60   ~ 0
WIFI RADIO INTERFACE
NoConn ~ 6600 5300
Wire Wire Line
	7150 4300 7150 4500
Wire Wire Line
	7250 4300 7250 4400
$Comp
L GND #PWR059
U 1 1 58CFFB00
P 7150 4500
F 0 "#PWR059" H 7150 4250 50  0001 C CNN
F 1 "GND" H 7150 4350 50  0000 C CNN
F 2 "" H 7150 4500 60  0000 C CNN
F 3 "" H 7150 4500 60  0000 C CNN
	1    7150 4500
	1    0    0    -1  
$EndComp
Wire Wire Line
	7250 4400 7150 4400
Connection ~ 7150 4400
Text Notes 6900 1700 0    60   ~ 0
TODO: Add debounce
Text Notes 7000 5200 0    60   ~ 0
TODO: Add flash connector
$EndSCHEMATC
