EESchema Schematic File Version 2
LIBS:power
LIBS:device
LIBS:transistors
LIBS:conn
LIBS:linear
LIBS:regul
LIBS:74xx
LIBS:cmos4000
LIBS:adc-dac
LIBS:memory
LIBS:xilinx
LIBS:microcontrollers
LIBS:dsp
LIBS:microchip
LIBS:analog_switches
LIBS:motorola
LIBS:texas
LIBS:intel
LIBS:audio
LIBS:interface
LIBS:digital-audio
LIBS:philips
LIBS:display
LIBS:cypress
LIBS:siliconi
LIBS:opto
LIBS:atmel
LIBS:contrib
LIBS:valves
LIBS:stm32
LIBS:tl494
LIBS:handler
LIBS:lph7366
LIBS:iface
LIBS:radio
EELAYER 25 0
EELAYER END
$Descr A4 11693 8268
encoding utf-8
Sheet 1 3
Title "Regulated Power Supply"
Date "Пт 13 фев 2015"
Rev "0.2.0"
Comp "Illumium.Org"
Comment1 ""
Comment2 "K. <kayo@illumium.org>"
Comment3 ""
Comment4 ""
$EndDescr
$Comp
L STM32F100C8T6 U100
U 1 1 54DB77D1
P 3900 2500
F 0 "U100" H 3900 4050 60  0000 C CNN
F 1 "STM32F100C8T6B" H 3900 1700 60  0000 C CNN
F 2 "Local:LQFP-48_7x7mm_Pitch0.5mm" H 3900 1300 60  0001 C CNN
F 3 "" H 4350 2450 60  0000 C CNN
	1    3900 2500
	1    0    0    -1  
$EndComp
$Comp
L C C105
U 1 1 54DB7A57
P 4200 5350
F 0 "C105" H 4250 5450 50  0000 L CNN
F 1 "10n" H 4250 5250 50  0000 L CNN
F 2 "Local:C_0603" H 4238 5200 30  0001 C CNN
F 3 "" H 4200 5350 60  0000 C CNN
	1    4200 5350
	-1   0    0    -1  
$EndComp
$Comp
L GND #PWR01
U 1 1 54DB7CB4
P 6400 4000
F 0 "#PWR01" H 6400 3750 60  0001 C CNN
F 1 "GND" H 6400 3850 60  0000 C CNN
F 2 "" H 6400 4000 60  0000 C CNN
F 3 "" H 6400 4000 60  0000 C CNN
	1    6400 4000
	1    0    0    -1  
$EndComp
$Comp
L +3V3 #PWR02
U 1 1 54DB7D52
P 6600 3700
F 0 "#PWR02" H 6600 3550 60  0001 C CNN
F 1 "+3V3" V 6600 3950 60  0000 C CNN
F 2 "" H 6600 3700 60  0000 C CNN
F 3 "" H 6600 3700 60  0000 C CNN
	1    6600 3700
	0    1    1    0   
$EndComp
$Comp
L C C101
U 1 1 54DB7E0B
P 2700 5350
F 0 "C101" H 2750 5450 50  0000 L CNN
F 1 "100n" H 2750 5250 50  0000 L CNN
F 2 "Local:C_0603" H 2738 5200 30  0001 C CNN
F 3 "" H 2700 5350 60  0000 C CNN
	1    2700 5350
	-1   0    0    -1  
$EndComp
$Comp
L C C102
U 1 1 54DB7E38
P 3000 5350
F 0 "C102" H 3050 5450 50  0000 L CNN
F 1 "100n" H 3050 5250 50  0000 L CNN
F 2 "Local:C_0603" H 3038 5200 30  0001 C CNN
F 3 "" H 3000 5350 60  0000 C CNN
	1    3000 5350
	-1   0    0    -1  
$EndComp
$Comp
L C C103
U 1 1 54DB7E6A
P 3300 5350
F 0 "C103" H 3350 5450 50  0000 L CNN
F 1 "100n" H 3350 5250 50  0000 L CNN
F 2 "Local:C_0603" H 3338 5200 30  0001 C CNN
F 3 "" H 3300 5350 60  0000 C CNN
	1    3300 5350
	-1   0    0    -1  
$EndComp
$Comp
L C C100
U 1 1 54DB664D
P 5100 5350
F 0 "C100" H 5150 5450 50  0000 L CNN
F 1 "100n" H 5150 5250 50  0000 L CNN
F 2 "Local:C_0603" H 5138 5200 30  0001 C CNN
F 3 "" H 5100 5350 60  0000 C CNN
	1    5100 5350
	-1   0    0    -1  
$EndComp
$Comp
L GND #PWR03
U 1 1 54DB69D7
P 1400 3000
F 0 "#PWR03" H 1400 2750 60  0001 C CNN
F 1 "GND" H 1400 2850 60  0000 C CNN
F 2 "" H 1400 3000 60  0000 C CNN
F 3 "" H 1400 3000 60  0000 C CNN
	1    1400 3000
	0    1    1    0   
$EndComp
$Comp
L GND #PWR04
U 1 1 54DB6AE1
P 5100 5600
F 0 "#PWR04" H 5100 5350 60  0001 C CNN
F 1 "GND" H 5100 5450 60  0000 C CNN
F 2 "" H 5100 5600 60  0000 C CNN
F 3 "" H 5100 5600 60  0000 C CNN
	1    5100 5600
	1    0    0    -1  
$EndComp
$Comp
L LD1117S33CTR U110
U 1 1 54DB7E58
P 1500 6650
F 0 "U110" H 1500 6950 40  0000 C CNN
F 1 "AD1117-3V3" H 1500 6850 40  0000 C CNN
F 2 "Local:SOT-223" H 1500 6750 40  0001 C CNN
F 3 "" H 1500 6650 60  0000 C CNN
	1    1500 6650
	1    0    0    -1  
$EndComp
$Comp
L CP C111
U 1 1 54DB81A7
P 2000 6850
F 0 "C111" H 2050 6950 50  0000 L CNN
F 1 "470u 25V" H 1800 6750 50  0000 L CNN
F 2 "Local:CP_Radial_D8.0mm_P3.50mm" H 2038 6700 30  0001 C CNN
F 3 "" H 2000 6850 60  0000 C CNN
	1    2000 6850
	1    0    0    -1  
$EndComp
$Comp
L GND #PWR05
U 1 1 54DB8267
P 1500 7100
F 0 "#PWR05" H 1500 6850 60  0001 C CNN
F 1 "GND" H 1500 6950 60  0000 C CNN
F 2 "" H 1500 7100 60  0000 C CNN
F 3 "" H 1500 7100 60  0000 C CNN
	1    1500 7100
	1    0    0    -1  
$EndComp
$Comp
L +3V3 #PWR06
U 1 1 54DB851C
P 2000 6500
F 0 "#PWR06" H 2000 6350 60  0001 C CNN
F 1 "+3V3" H 2000 6640 60  0000 C CNN
F 2 "" H 2000 6500 60  0000 C CNN
F 3 "" H 2000 6500 60  0000 C CNN
	1    2000 6500
	1    0    0    -1  
$EndComp
$Comp
L GND #PWR07
U 1 1 54DD48E7
P 7100 5600
F 0 "#PWR07" H 7100 5350 60  0001 C CNN
F 1 "GND" H 7100 5450 60  0000 C CNN
F 2 "" H 7100 5600 60  0000 C CNN
F 3 "" H 7100 5600 60  0000 C CNN
	1    7100 5600
	1    0    0    -1  
$EndComp
$Comp
L +3V3 #PWR08
U 1 1 54DD4A66
P 7100 5100
F 0 "#PWR08" H 7100 4950 60  0001 C CNN
F 1 "+3V3" H 7100 5240 60  0000 C CNN
F 2 "" H 7100 5100 60  0000 C CNN
F 3 "" H 7100 5100 60  0000 C CNN
	1    7100 5100
	1    0    0    -1  
$EndComp
$Comp
L GND #PWR09
U 1 1 54DB7DDF
P 4200 5600
F 0 "#PWR09" H 4200 5350 60  0001 C CNN
F 1 "GND" H 4200 5450 60  0000 C CNN
F 2 "" H 4200 5600 60  0000 C CNN
F 3 "" H 4200 5600 60  0000 C CNN
	1    4200 5600
	1    0    0    -1  
$EndComp
$Comp
L GND #PWR010
U 1 1 54E2961A
P 1200 5600
F 0 "#PWR010" H 1200 5350 60  0001 C CNN
F 1 "GND" H 1200 5450 60  0000 C CNN
F 2 "" H 1200 5600 60  0000 C CNN
F 3 "" H 1200 5600 60  0000 C CNN
	1    1200 5600
	1    0    0    -1  
$EndComp
Text GLabel 1400 2800 0    47   Input ~ 0
~RESET
Text GLabel 1400 1800 0    47   Input ~ 0
I_SENS
Text GLabel 1400 1700 0    47   Input ~ 0
U_SENS
Text GLabel 1400 1600 0    47   Input ~ 0
T2_SENS
Text GLabel 1400 1500 0    47   Input ~ 0
T1_SENS
Text GLabel 1400 2400 0    47   Input ~ 0
SWDIO
Text GLabel 1400 2500 0    47   Input ~ 0
SWCLK
Text GLabel 6400 1100 2    47   Input ~ 0
ENC_B
Text GLabel 6400 1200 2    47   Input ~ 0
ENC_A
Text GLabel 6400 1300 2    47   Input ~ 0
ENC_P
$Comp
L CP C110
U 1 1 56F41E69
P 1000 6850
F 0 "C110" H 1050 6950 50  0000 L CNN
F 1 "47u 25V" H 850 6750 50  0000 L CNN
F 2 "Local:CP_Radial_D5.0mm_P2.00mm" H 1038 6700 30  0001 C CNN
F 3 "" H 1000 6850 60  0000 C CNN
	1    1000 6850
	-1   0    0    -1  
$EndComp
$Comp
L GND #PWR011
U 1 1 56F44119
P 1000 7100
F 0 "#PWR011" H 1000 6850 60  0001 C CNN
F 1 "GND" H 1000 6950 60  0000 C CNN
F 2 "" H 1000 7100 60  0000 C CNN
F 3 "" H 1000 7100 60  0000 C CNN
	1    1000 7100
	1    0    0    -1  
$EndComp
$Comp
L GND #PWR012
U 1 1 56F48BF1
P 2000 7100
F 0 "#PWR012" H 2000 6850 60  0001 C CNN
F 1 "GND" H 2000 6950 60  0000 C CNN
F 2 "" H 2000 7100 60  0000 C CNN
F 3 "" H 2000 7100 60  0000 C CNN
	1    2000 7100
	1    0    0    -1  
$EndComp
Text GLabel 1400 2200 0    47   Input ~ 0
FAN_PWM
Text GLabel 5000 6500 1    47   Input ~ 0
+5VA
Text GLabel 5100 5100 1    60   Input ~ 0
~RESET
$Comp
L GND #PWR013
U 1 1 57049C61
P 2700 5600
F 0 "#PWR013" H 2700 5350 60  0001 C CNN
F 1 "GND" H 2700 5450 60  0000 C CNN
F 2 "" H 2700 5600 60  0000 C CNN
F 3 "" H 2700 5600 60  0000 C CNN
	1    2700 5600
	1    0    0    -1  
$EndComp
$Comp
L GND #PWR014
U 1 1 57049D47
P 3000 5600
F 0 "#PWR014" H 3000 5350 60  0001 C CNN
F 1 "GND" H 3000 5450 60  0000 C CNN
F 2 "" H 3000 5600 60  0000 C CNN
F 3 "" H 3000 5600 60  0000 C CNN
	1    3000 5600
	1    0    0    -1  
$EndComp
$Comp
L GND #PWR015
U 1 1 57049E2D
P 3300 5600
F 0 "#PWR015" H 3300 5350 60  0001 C CNN
F 1 "GND" H 3300 5450 60  0000 C CNN
F 2 "" H 3300 5600 60  0000 C CNN
F 3 "" H 3300 5600 60  0000 C CNN
	1    3300 5600
	1    0    0    -1  
$EndComp
$Comp
L +3V3 #PWR016
U 1 1 57049FF6
P 2700 5100
F 0 "#PWR016" H 2700 4950 60  0001 C CNN
F 1 "+3V3" H 2700 5240 60  0000 C CNN
F 2 "" H 2700 5100 60  0000 C CNN
F 3 "" H 2700 5100 60  0000 C CNN
	1    2700 5100
	1    0    0    -1  
$EndComp
$Comp
L +3V3 #PWR017
U 1 1 5704A0DC
P 3000 5100
F 0 "#PWR017" H 3000 4950 60  0001 C CNN
F 1 "+3V3" H 3000 5240 60  0000 C CNN
F 2 "" H 3000 5100 60  0000 C CNN
F 3 "" H 3000 5100 60  0000 C CNN
	1    3000 5100
	1    0    0    -1  
$EndComp
NoConn ~ 1400 2600
Text GLabel 6600 3100 2    47   Input ~ 0
+3V3A
$Comp
L +3V3 #PWR018
U 1 1 5704A1C2
P 3300 5100
F 0 "#PWR018" H 3300 4950 60  0001 C CNN
F 1 "+3V3" H 3300 5240 60  0000 C CNN
F 2 "" H 3300 5100 60  0000 C CNN
F 3 "" H 3300 5100 60  0000 C CNN
	1    3300 5100
	1    0    0    -1  
$EndComp
Text GLabel 4200 5100 1    47   Input ~ 0
+3V3A
$Comp
L SWD J100
U 1 1 58BF40F6
P 7600 5350
F 0 "J100" H 7600 5650 60  0000 C CNN
F 1 "SWD" H 7600 5050 60  0000 C CNN
F 2 "Local:Pin_Header_Straight_1x04_Pitch2.54mm" H 7400 5350 60  0001 C CNN
F 3 "" H 7400 5350 60  0000 C CNN
	1    7600 5350
	1    0    0    -1  
$EndComp
$Comp
L C C106
U 1 1 58BF55B3
P 4500 5350
F 0 "C106" H 4550 5450 50  0000 L CNN
F 1 "1u" H 4550 5250 50  0000 L CNN
F 2 "Local:C_0805" H 4538 5200 30  0001 C CNN
F 3 "" H 4500 5350 60  0000 C CNN
	1    4500 5350
	-1   0    0    -1  
$EndComp
Text GLabel 4500 5100 1    47   Input ~ 0
+3V3A
$Comp
L GND #PWR019
U 1 1 58BF587C
P 4500 5600
F 0 "#PWR019" H 4500 5350 60  0001 C CNN
F 1 "GND" H 4500 5450 60  0000 C CNN
F 2 "" H 4500 5600 60  0000 C CNN
F 3 "" H 4500 5600 60  0000 C CNN
	1    4500 5600
	1    0    0    -1  
$EndComp
Text GLabel 7000 5200 0    47   Input ~ 0
SWDIO
Text GLabel 7000 5400 0    47   Input ~ 0
SWCLK
Text GLabel 1400 1400 0    47   Input ~ 0
RS485_RO
Text GLabel 1400 1300 0    47   Input ~ 0
RS485_DI
Text GLabel 1400 1200 0    47   Input ~ 0
~RS485_RE
Text GLabel 1400 1100 0    47   Input ~ 0
RS485_DE
Text GLabel 6400 2400 2    47   Input ~ 0
LCD_SCLK
Text GLabel 6400 2600 2    47   Input ~ 0
LCD_MOSI
Text GLabel 6400 2500 2    47   Input ~ 0
LCD_D~C
Text GLabel 6400 2300 2    47   Input ~ 0
~LCD_CS
Text GLabel 1400 1900 0    47   Input ~ 0
~LCD_RES
Text GLabel 6400 2000 2    47   Input ~ 0
LCD_BLC
Text GLabel 5700 4700 1    47   Input ~ 0
OSC_IN
Text GLabel 6200 4700 1    47   Input ~ 0
OSC_OUT
$Comp
L Crystal Y100
U 1 1 58C0E27A
P 5950 5100
F 0 "Y100" H 5950 5250 50  0000 C CNN
F 1 "8MHz" H 5950 4950 50  0000 C CNN
F 2 "Local:Crystal_HC49-U_Vertical" H 5950 5100 60  0001 C CNN
F 3 "" H 5950 5100 60  0000 C CNN
	1    5950 5100
	1    0    0    -1  
$EndComp
$Comp
L C C108
U 1 1 58C0E281
P 5700 5350
F 0 "C108" H 5725 5450 50  0000 L CNN
F 1 "27p" H 5725 5250 50  0000 L CNN
F 2 "Local:C_0603" H 5738 5200 30  0001 C CNN
F 3 "" H 5700 5350 60  0000 C CNN
	1    5700 5350
	-1   0    0    -1  
$EndComp
$Comp
L C C109
U 1 1 58C0E288
P 6200 5350
F 0 "C109" H 6225 5450 50  0000 L CNN
F 1 "27p" H 6225 5250 50  0000 L CNN
F 2 "Local:C_0603" H 6238 5200 30  0001 C CNN
F 3 "" H 6200 5350 60  0000 C CNN
	1    6200 5350
	1    0    0    -1  
$EndComp
$Comp
L GND #PWR020
U 1 1 58C0E28F
P 6200 5600
F 0 "#PWR020" H 6200 5350 50  0001 C CNN
F 1 "GND" H 6200 5450 50  0000 C CNN
F 2 "" H 6200 5600 60  0000 C CNN
F 3 "" H 6200 5600 60  0000 C CNN
	1    6200 5600
	1    0    0    -1  
$EndComp
$Comp
L GND #PWR021
U 1 1 58C0E295
P 5700 5600
F 0 "#PWR021" H 5700 5350 50  0001 C CNN
F 1 "GND" H 5700 5450 50  0000 C CNN
F 2 "" H 5700 5600 60  0000 C CNN
F 3 "" H 5700 5600 60  0000 C CNN
	1    5700 5600
	1    0    0    -1  
$EndComp
$Comp
L R R100
U 1 1 58C0E29B
P 5950 4800
F 0 "R100" V 6030 4800 50  0000 C CNN
F 1 "1M" V 5957 4801 50  0000 C CNN
F 2 "Local:R_0603" V 5880 4800 30  0001 C CNN
F 3 "" H 5950 4800 30  0000 C CNN
	1    5950 4800
	0    -1   -1   0   
$EndComp
Text GLabel 1400 3200 0    47   Input ~ 0
OSC_IN
Text GLabel 1400 3300 0    47   Input ~ 0
OSC_OUT
NoConn ~ 1400 3600
NoConn ~ 1400 3900
Text GLabel 6400 2200 2    47   Input ~ 0
WRT_TX
Text GLabel 6400 2100 2    47   Input ~ 0
WRT_RX
Text GLabel 1400 2000 0    47   Input ~ 0
PWM_H
Text GLabel 1400 2100 0    47   Input ~ 0
PWM_L
NoConn ~ 6400 1800
NoConn ~ 6400 1900
$Comp
L C C104
U 1 1 58C14AC2
P 3600 5350
F 0 "C104" H 3650 5450 50  0000 L CNN
F 1 "10u" H 3650 5250 50  0000 L CNN
F 2 "Local:C_0805" H 3638 5200 30  0001 C CNN
F 3 "" H 3600 5350 60  0000 C CNN
	1    3600 5350
	-1   0    0    -1  
$EndComp
$Comp
L GND #PWR022
U 1 1 58C14AC8
P 3600 5600
F 0 "#PWR022" H 3600 5350 60  0001 C CNN
F 1 "GND" H 3600 5450 60  0000 C CNN
F 2 "" H 3600 5600 60  0000 C CNN
F 3 "" H 3600 5600 60  0000 C CNN
	1    3600 5600
	1    0    0    -1  
$EndComp
$Comp
L +3V3 #PWR023
U 1 1 58C14B85
P 3600 5100
F 0 "#PWR023" H 3600 4950 60  0001 C CNN
F 1 "+3V3" H 3600 5240 60  0000 C CNN
F 2 "" H 3600 5100 60  0000 C CNN
F 3 "" H 3600 5100 60  0000 C CNN
	1    3600 5100
	1    0    0    -1  
$EndComp
$Comp
L MC78L05ACH U130
U 1 1 58C19FC3
P 4500 6650
F 0 "U130" H 4500 6950 50  0000 C CNN
F 1 "78L05" H 4500 6850 50  0000 C CNN
F 2 "Local:SOT89-3_Housing" H 4500 6750 50  0001 C CIN
F 3 "" H 4500 6650 50  0000 C CNN
	1    4500 6650
	1    0    0    -1  
$EndComp
$Comp
L GND #PWR024
U 1 1 58C1B95C
P 5000 7100
F 0 "#PWR024" H 5000 6850 60  0001 C CNN
F 1 "GND" H 5000 6950 60  0000 C CNN
F 2 "" H 5000 7100 60  0000 C CNN
F 3 "" H 5000 7100 60  0000 C CNN
	1    5000 7100
	1    0    0    -1  
$EndComp
$Comp
L GND #PWR025
U 1 1 58C1BD7E
P 3600 7100
F 0 "#PWR025" H 3600 6850 60  0001 C CNN
F 1 "GND" H 3600 6950 60  0000 C CNN
F 2 "" H 3600 7100 60  0000 C CNN
F 3 "" H 3600 7100 60  0000 C CNN
	1    3600 7100
	1    0    0    -1  
$EndComp
$Comp
L GND #PWR026
U 1 1 58C1CC09
P 4500 7100
F 0 "#PWR026" H 4500 6850 60  0001 C CNN
F 1 "GND" H 4500 6950 60  0000 C CNN
F 2 "" H 4500 7100 60  0000 C CNN
F 3 "" H 4500 7100 60  0000 C CNN
	1    4500 7100
	1    0    0    -1  
$EndComp
$Comp
L GND #PWR027
U 1 1 58C1F2D6
P 6100 7100
F 0 "#PWR027" H 6100 6850 60  0001 C CNN
F 1 "GND" H 6100 6950 60  0000 C CNN
F 2 "" H 6100 7100 60  0000 C CNN
F 3 "" H 6100 7100 60  0000 C CNN
	1    6100 7100
	1    0    0    -1  
$EndComp
Text GLabel 6600 6500 1    47   Input ~ 0
+3V3A
$Comp
L LD1117S33CTR U120
U 1 1 58C2289D
P 6100 6650
F 0 "U120" H 6100 6950 40  0000 C CNN
F 1 "XC6206-P332MR" H 6100 6850 40  0000 C CNN
F 2 "Local:SOT-23" H 6100 6750 40  0001 C CNN
F 3 "" H 6100 6650 60  0000 C CNN
	1    6100 6650
	1    0    0    -1  
$EndComp
Text GLabel 1000 6500 1    47   Input ~ 0
+5VP
Text GLabel 1200 5200 2    47   Input ~ 0
+15VP
Text GLabel 1400 2300 0    47   Input ~ 0
~WRT_FLASH
Text GLabel 6400 1600 2    47   Input ~ 0
WRT_READY
Text GLabel 6400 1500 2    47   Input ~ 0
WRT_POWER
$Comp
L CONN_01X03 P100
U 1 1 58C16B90
P 900 5300
F 0 "P100" H 900 5500 50  0000 C CNN
F 1 "POWER" V 1000 5300 50  0000 C CNN
F 2 "Local:Molex_KK-6410-03_03x2.54mm_Straight" H 900 5300 60  0001 C CNN
F 3 "" H 900 5300 60  0000 C CNN
	1    900  5300
	-1   0    0    1   
$EndComp
Wire Wire Line
	6600 6500 6600 6700
Wire Wire Line
	6500 6600 6600 6600
Wire Wire Line
	6100 6900 6100 7100
Wire Wire Line
	4500 6900 4500 7100
Wire Wire Line
	4000 6500 4000 6600
Wire Wire Line
	4000 6600 4100 6600
Wire Wire Line
	3600 7000 3600 7100
Connection ~ 5000 6600
Wire Wire Line
	5000 7000 5000 7100
Wire Wire Line
	5000 6500 5000 6700
Wire Wire Line
	4900 6600 5000 6600
Wire Wire Line
	3600 5100 3600 5200
Wire Wire Line
	3600 5500 3600 5600
Connection ~ 5700 4800
Wire Wire Line
	5800 4800 5700 4800
Connection ~ 6200 4800
Wire Wire Line
	6200 4800 6100 4800
Wire Wire Line
	6200 5500 6200 5600
Wire Wire Line
	5700 5500 5700 5600
Connection ~ 5700 5100
Connection ~ 6200 5100
Wire Wire Line
	6200 5100 6100 5100
Wire Wire Line
	6200 4700 6200 5200
Wire Wire Line
	5700 5100 5800 5100
Wire Wire Line
	5700 4700 5700 5200
Wire Wire Line
	4500 5500 4500 5600
Wire Wire Line
	4500 5100 4500 5200
Wire Wire Line
	6300 3100 6600 3100
Wire Wire Line
	3300 5100 3300 5200
Wire Wire Line
	3000 5100 3000 5200
Wire Wire Line
	2700 5100 2700 5200
Wire Wire Line
	4200 5100 4200 5200
Wire Wire Line
	4200 5500 4200 5600
Wire Wire Line
	2700 5500 2700 5600
Wire Wire Line
	3000 5500 3000 5600
Wire Wire Line
	3300 5500 3300 5600
Wire Wire Line
	7100 5500 7100 5600
Wire Wire Line
	7200 5500 7100 5500
Wire Wire Line
	2000 7000 2000 7100
Connection ~ 1000 6600
Wire Wire Line
	1000 6500 1000 6700
Wire Wire Line
	1000 7000 1000 7100
Wire Wire Line
	1000 6600 1100 6600
Wire Wire Line
	1200 5400 1200 5600
Wire Wire Line
	1100 5400 1200 5400
Wire Wire Line
	5100 5200 5100 5100
Wire Wire Line
	5100 5600 5100 5500
Connection ~ 6400 3500
Wire Wire Line
	1500 2800 1400 2800
Wire Wire Line
	1500 1800 1400 1800
Wire Wire Line
	1500 1700 1400 1700
Wire Wire Line
	1500 1600 1400 1600
Wire Wire Line
	1500 1500 1400 1500
Wire Wire Line
	1400 2300 1500 2300
Wire Wire Line
	1400 2200 1500 2200
Wire Wire Line
	1400 2100 1500 2100
Wire Wire Line
	1500 1400 1400 1400
Wire Wire Line
	1500 1300 1400 1300
Wire Wire Line
	6400 2600 6300 2600
Wire Wire Line
	6400 2500 6300 2500
Wire Wire Line
	6400 2400 6300 2400
Wire Wire Line
	6400 2300 6300 2300
Wire Wire Line
	6400 2200 6300 2200
Wire Wire Line
	6400 2100 6300 2100
Wire Wire Line
	6400 2000 6300 2000
Wire Wire Line
	6400 1900 6300 1900
Wire Wire Line
	6400 1800 6300 1800
Wire Wire Line
	6400 1700 6300 1700
Wire Wire Line
	6400 1600 6300 1600
Wire Wire Line
	6400 1500 6300 1500
Wire Wire Line
	6400 1400 6300 1400
Wire Wire Line
	6400 1300 6300 1300
Wire Wire Line
	6400 1200 6300 1200
Wire Wire Line
	6400 1100 6300 1100
Wire Wire Line
	7200 5400 7000 5400
Wire Wire Line
	7200 5200 7000 5200
Wire Wire Line
	7100 5300 7100 5100
Wire Wire Line
	7200 5300 7100 5300
Wire Wire Line
	1500 1200 1400 1200
Wire Wire Line
	1500 1100 1400 1100
Wire Wire Line
	1500 2000 1400 2000
Wire Wire Line
	1500 1900 1400 1900
Connection ~ 2000 6600
Wire Wire Line
	1500 6900 1500 7100
Wire Wire Line
	2000 6500 2000 6700
Wire Wire Line
	1900 6600 2000 6600
Connection ~ 6400 3300
Wire Wire Line
	6300 3000 6400 3000
Connection ~ 6500 3700
Wire Wire Line
	6500 2800 6300 2800
Wire Wire Line
	1500 2600 1400 2600
Wire Wire Line
	1500 3900 1400 3900
Wire Wire Line
	1500 3800 1400 3800
Wire Wire Line
	1500 3600 1400 3600
Wire Wire Line
	1500 3300 1400 3300
Wire Wire Line
	1500 3200 1400 3200
Wire Wire Line
	1500 3000 1400 3000
Connection ~ 6500 3800
Wire Wire Line
	6500 3800 6300 3800
Wire Wire Line
	6500 3900 6300 3900
Wire Wire Line
	6500 2800 6500 3900
Wire Wire Line
	6300 3700 6600 3700
Connection ~ 6400 3400
Wire Wire Line
	6300 3300 6400 3300
Wire Wire Line
	6400 3400 6300 3400
Wire Wire Line
	6400 3000 6400 4000
Wire Wire Line
	6400 3500 6300 3500
Wire Wire Line
	1500 2500 1400 2500
Wire Wire Line
	1500 2400 1400 2400
Text GLabel 1200 5300 2    47   Input ~ 0
+5VP
Text Notes 3700 6200 0    60   ~ 0
POWER SUPPLY
$Sheet
S 9200 1100 1700 1000
U 58C31499
F0 "Interface" 60
F1 "interface.sch" 60
$EndSheet
$Sheet
S 9200 2900 1700 1000
U 58C3AF7E
F0 "Device" 60
F1 "device.sch" 60
$EndSheet
Connection ~ 6600 6600
Wire Wire Line
	6600 7000 6600 7100
$Comp
L GND #PWR028
U 1 1 58C42C75
P 6600 7100
F 0 "#PWR028" H 6600 6850 60  0001 C CNN
F 1 "GND" H 6600 6950 60  0000 C CNN
F 2 "" H 6600 7100 60  0000 C CNN
F 3 "" H 6600 7100 60  0000 C CNN
	1    6600 7100
	1    0    0    -1  
$EndComp
Text GLabel 5600 6500 1    47   Input ~ 0
+5VP
Wire Wire Line
	5700 6600 5600 6600
Wire Wire Line
	5600 6500 5600 6700
$Comp
L C C121
U 1 1 58C43327
P 6600 6850
F 0 "C121" H 6650 6950 50  0000 L CNN
F 1 "22u" H 6650 6750 50  0000 L CNN
F 2 "Local:C_0805" H 6638 6700 30  0001 C CNN
F 3 "" H 6600 6850 60  0000 C CNN
	1    6600 6850
	1    0    0    -1  
$EndComp
$Comp
L C C120
U 1 1 58C43CBE
P 5600 6850
F 0 "C120" H 5650 6950 50  0000 L CNN
F 1 "1u" H 5650 6750 50  0000 L CNN
F 2 "Local:C_0805" H 5638 6700 30  0001 C CNN
F 3 "" H 5600 6850 60  0000 C CNN
	1    5600 6850
	-1   0    0    -1  
$EndComp
$Comp
L GND #PWR029
U 1 1 58C43E0D
P 5600 7100
F 0 "#PWR029" H 5600 6850 60  0001 C CNN
F 1 "GND" H 5600 6950 60  0000 C CNN
F 2 "" H 5600 7100 60  0000 C CNN
F 3 "" H 5600 7100 60  0000 C CNN
	1    5600 7100
	1    0    0    -1  
$EndComp
Wire Wire Line
	5600 7100 5600 7000
Connection ~ 5600 6600
$Comp
L C C131
U 1 1 58C457BA
P 5000 6850
F 0 "C131" H 5050 6950 50  0000 L CNN
F 1 "47u" H 5050 6750 50  0000 L CNN
F 2 "Local:C_1206" H 5038 6700 30  0001 C CNN
F 3 "" H 5000 6850 60  0000 C CNN
	1    5000 6850
	1    0    0    -1  
$EndComp
$Comp
L CP C130
U 1 1 58C10F33
P 3600 6850
F 0 "C130" H 3650 6950 50  0000 L CNN
F 1 "47u 25V" H 3450 6750 50  0000 L CNN
F 2 "Local:CP_Radial_D5.0mm_P2.00mm" H 3638 6700 30  0001 C CNN
F 3 "" H 3600 6850 60  0000 C CNN
	1    3600 6850
	1    0    0    -1  
$EndComp
Wire Wire Line
	1200 5200 1100 5200
Wire Wire Line
	1200 5300 1100 5300
$Comp
L PWR_FLAG #FLG030
U 1 1 58C19FCC
P 1050 4900
F 0 "#FLG030" H 1050 4995 50  0001 C CNN
F 1 "PWR_FLAG" V 1200 4900 50  0000 C CNN
F 2 "" H 1050 4900 50  0000 C CNN
F 3 "" H 1050 4900 50  0000 C CNN
	1    1050 4900
	0    -1   -1   0   
$EndComp
Text GLabel 1150 4900 2    47   Input ~ 0
+5VP
Wire Wire Line
	1050 4900 1150 4900
$Comp
L CONN_01X01 M100
U 1 1 58C1BBA3
P 9800 5300
F 0 "M100" H 9800 5400 50  0000 C CNN
F 1 "M3" V 9900 5300 50  0000 C CNN
F 2 "Local:MountingHole_3mm" H 9800 5300 50  0001 C CNN
F 3 "" H 9800 5300 50  0000 C CNN
	1    9800 5300
	0    -1   -1   0   
$EndComp
$Comp
L CONN_01X01 M101
U 1 1 58C1BC6F
P 10100 5300
F 0 "M101" H 10100 5400 50  0000 C CNN
F 1 "M3" V 10200 5300 50  0000 C CNN
F 2 "Local:MountingHole_3mm" H 10100 5300 50  0001 C CNN
F 3 "" H 10100 5300 50  0000 C CNN
	1    10100 5300
	0    -1   -1   0   
$EndComp
$Comp
L CONN_01X01 M102
U 1 1 58C1BE78
P 10400 5300
F 0 "M102" H 10400 5400 50  0000 C CNN
F 1 "M3" V 10500 5300 50  0000 C CNN
F 2 "Local:MountingHole_3mm" H 10400 5300 50  0001 C CNN
F 3 "" H 10400 5300 50  0000 C CNN
	1    10400 5300
	0    -1   -1   0   
$EndComp
$Comp
L CONN_01X01 M103
U 1 1 58C1BEFC
P 10700 5300
F 0 "M103" H 10700 5400 50  0000 C CNN
F 1 "M3" V 10800 5300 50  0000 C CNN
F 2 "Local:MountingHole_3mm" H 10700 5300 50  0001 C CNN
F 3 "" H 10700 5300 50  0000 C CNN
	1    10700 5300
	0    -1   -1   0   
$EndComp
Wire Wire Line
	9800 5500 9800 5600
Wire Wire Line
	10100 5500 10100 5600
Wire Wire Line
	10400 5500 10400 5600
Wire Wire Line
	10700 5500 10700 5600
$Comp
L GND #PWR031
U 1 1 58C1C2DC
P 9800 5600
F 0 "#PWR031" H 9800 5350 60  0001 C CNN
F 1 "GND" H 9800 5450 60  0000 C CNN
F 2 "" H 9800 5600 60  0000 C CNN
F 3 "" H 9800 5600 60  0000 C CNN
	1    9800 5600
	1    0    0    -1  
$EndComp
$Comp
L GND #PWR032
U 1 1 58C1C33B
P 10100 5600
F 0 "#PWR032" H 10100 5350 60  0001 C CNN
F 1 "GND" H 10100 5450 60  0000 C CNN
F 2 "" H 10100 5600 60  0000 C CNN
F 3 "" H 10100 5600 60  0000 C CNN
	1    10100 5600
	1    0    0    -1  
$EndComp
$Comp
L GND #PWR033
U 1 1 58C1C39A
P 10400 5600
F 0 "#PWR033" H 10400 5350 60  0001 C CNN
F 1 "GND" H 10400 5450 60  0000 C CNN
F 2 "" H 10400 5600 60  0000 C CNN
F 3 "" H 10400 5600 60  0000 C CNN
	1    10400 5600
	1    0    0    -1  
$EndComp
$Comp
L GND #PWR034
U 1 1 58C1C3F9
P 10700 5600
F 0 "#PWR034" H 10700 5350 60  0001 C CNN
F 1 "GND" H 10700 5450 60  0000 C CNN
F 2 "" H 10700 5600 60  0000 C CNN
F 3 "" H 10700 5600 60  0000 C CNN
	1    10700 5600
	1    0    0    -1  
$EndComp
$Comp
L LM7812CT U140
U 1 1 58C3C4A8
P 3100 6650
F 0 "U140" H 3100 6950 50  0000 C CNN
F 1 "78M12" H 3100 6850 50  0000 C CNN
F 2 "Local:TO-252-2Lead" H 3100 6750 50  0001 C CIN
F 3 "" H 3100 6650 50  0000 C CNN
	1    3100 6650
	1    0    0    -1  
$EndComp
Text GLabel 2600 6600 0    47   Input ~ 0
+15VP
$Comp
L GND #PWR035
U 1 1 58C3C97F
P 3100 7100
F 0 "#PWR035" H 3100 6850 60  0001 C CNN
F 1 "GND" H 3100 6950 60  0000 C CNN
F 2 "" H 3100 7100 60  0000 C CNN
F 3 "" H 3100 7100 60  0000 C CNN
	1    3100 7100
	1    0    0    -1  
$EndComp
Wire Wire Line
	3100 6900 3100 7100
$Comp
L +12V #PWR036
U 1 1 58C3DCDA
P 3600 6500
F 0 "#PWR036" H 3600 6350 50  0001 C CNN
F 1 "+12V" H 3600 6640 50  0000 C CNN
F 2 "" H 3600 6500 50  0000 C CNN
F 3 "" H 3600 6500 50  0000 C CNN
	1    3600 6500
	1    0    0    -1  
$EndComp
Wire Wire Line
	3600 6500 3600 6700
Wire Wire Line
	3600 6600 3500 6600
Wire Wire Line
	2700 6600 2600 6600
$Comp
L +12V #PWR037
U 1 1 58C3E18F
P 4000 6500
F 0 "#PWR037" H 4000 6350 50  0001 C CNN
F 1 "+12V" H 4000 6640 50  0000 C CNN
F 2 "" H 4000 6500 50  0000 C CNN
F 3 "" H 4000 6500 50  0000 C CNN
	1    4000 6500
	1    0    0    -1  
$EndComp
Connection ~ 3600 6600
Text Notes -650 3250 0    60   ~ 0
ADC:\n4: T1_SENS\n5: T2_SENS\n6: U_SENS\n7: I_SENS\n\nEXTI:\n0,1: ENCODER\n2: BUTTON\n\nSPI:\n2: LCD DISPLAY\n\nUART:\n2: RS485\n3: WIFI\n\nTIMER:\n1: PWM 4: FAN CONTROL\n1: PWM 2,3: BRIDGE\n4: PWM 1: LCD BACKLIGHT\n\nDMA:\n1: ADC\n2,3: UART3\n4: [free]\n5: SPI2\n6,7: UART2
Text GLabel 1400 3800 0    47   Input ~ 0
LCD_BLC
Wire Notes Line
	900  3800 1000 3800
Wire Notes Line
	950  3750 950  3850
$Comp
L +3V3 #PWR038
U 1 1 58CE85A8
P 6400 1700
F 0 "#PWR038" H 6400 1550 60  0001 C CNN
F 1 "+3V3" V 6400 1950 60  0000 C CNN
F 2 "" H 6400 1700 60  0000 C CNN
F 3 "" H 6400 1700 60  0000 C CNN
	1    6400 1700
	0    1    1    0   
$EndComp
NoConn ~ 6400 1400
Text Notes 5600 6150 0    60   ~ 0
TODO: +3V3A from +5VP
Wire Notes Line
	6900 1700 7000 1700
Wire Notes Line
	6950 1650 6950 1750
$EndSCHEMATC
