EESchema Schematic File Version 2
LIBS:spice
EELAYER 25 0
EELAYER END
$Descr A4 11693 8268
encoding utf-8
Sheet 1 1
Title ""
Date ""
Rev ""
Comp ""
Comment1 ""
Comment2 ""
Comment3 ""
Comment4 ""
$EndDescr
$Comp
L C C1
U 1 1 56F2C8D1
P 6100 4000
F 0 "C1" H 6100 4125 60  0000 C CNN
F 1 "100n" H 6100 3875 60  0000 C CNN
F 2 "" H 5450 4550 60  0000 C CNN
F 3 "" H 5450 4550 60  0000 C CNN
	1    6100 4000
	0    -1   -1   0   
$EndComp
$Comp
L 0 #GND01
U 1 1 56F2C998
P 6100 4200
F 0 "#GND01" H 6100 4100 40  0001 C CNN
F 1 "0" H 6100 4130 40  0000 C CNN
F 2 "" H 6100 4200 60  0000 C CNN
F 3 "" H 6100 4200 60  0000 C CNN
	1    6100 4200
	1    0    0    -1  
$EndComp
Wire Wire Line
	6100 4100 6100 4200
Wire Wire Line
	6100 3700 6100 3900
Wire Wire Line
	6000 3800 6200 3800
$Comp
L R R1
U 1 1 56F2C9BD
P 5800 3800
F 0 "R1" H 5800 3900 60  0000 C CNN
F 1 "10K" H 5800 3700 60  0000 C CNN
F 2 "" H 5800 3800 60  0000 C CNN
F 3 "" H 5800 3800 60  0000 C CNN
	1    5800 3800
	1    0    0    -1  
$EndComp
Connection ~ 6100 3800
Wire Wire Line
	5600 3800 5500 3800
Text GLabel 6100 3700 1    60   Input ~ 0
OUT0
Text GLabel 5500 3800 0    60   Input ~ 0
PWM
$Comp
L V V1
U 1 1 56F2CA7B
P 3300 2400
F 0 "V1" H 3175 2600 60  0000 C CNN
F 1 "PWL(0 0 10mS 0 20mS 1.6V 40mS 1.6V 50mS 0 55mS 0)" H 3300 1900 60  0000 C CNN
F 2 "" H 2975 2400 60  0000 C CNN
F 3 "" H 2975 2400 60  0000 C CNN
	1    3300 2400
	1    0    0    -1  
$EndComp
Wire Wire Line
	3300 2100 3300 2200
Wire Wire Line
	3300 2600 3300 2700
$Comp
L 0 #GND02
U 1 1 56F2CAFE
P 3300 2700
F 0 "#GND02" H 3300 2600 40  0001 C CNN
F 1 "0" H 3300 2630 40  0000 C CNN
F 2 "" H 3300 2700 60  0000 C CNN
F 3 "" H 3300 2700 60  0000 C CNN
	1    3300 2700
	1    0    0    -1  
$EndComp
Text Notes 7600 4800 0    60   ~ 0
+pspice\n* \n.control\n  options nopage\n  options savecurrents\n  tran 0.5uS 55mS 5mS\n  set gnuplot_terminal=png\n  gnuplot integr\n*  + v(saw)\n  + v(rise)\n*  + v(pwm)\n  + v(out0)\n  + v(out)\n.endc
$Comp
L V V2
U 1 1 56F2D2CE
P 3300 4200
F 0 "V2" H 3175 4400 60  0000 C CNN
F 1 "PWL(0uS 0 28.444uS 3.3V 56.888uS 0) r=0" H 3300 3700 60  0000 C CNN
F 2 "" H 2975 4200 60  0000 C CNN
F 3 "" H 2975 4200 60  0000 C CNN
	1    3300 4200
	1    0    0    -1  
$EndComp
Wire Wire Line
	3300 4400 3300 4500
$Comp
L 0 #GND03
U 1 1 56F2D4AF
P 3300 4500
F 0 "#GND03" H 3300 4400 40  0001 C CNN
F 1 "0" H 3300 4430 40  0000 C CNN
F 2 "" H 3300 4500 60  0000 C CNN
F 3 "" H 3300 4500 60  0000 C CNN
	1    3300 4500
	1    0    0    -1  
$EndComp
Wire Wire Line
	3300 4000 3300 3900
Text GLabel 3300 3900 1    60   Input ~ 0
SAW
Text GLabel 3300 2100 1    60   Input ~ 0
RISE
Text Notes 7600 2950 0    60   ~ 0
-pspice\n* COMPARATOR, INPUT = V(1,2)\n* FOR V(1,2) < -1uV, OUTPUT = 0V\n* FOR V(1,2) > +1uV, OUTPUT = 3V3\nE1	PWM	0	TABLE {V(RISE, SAW)} = (-1uV 0V) (1uV, 3.3V) 
$Comp
L R R4
U 1 1 56F2DF92
P 5200 2400
F 0 "R4" H 5200 2500 60  0000 C CNN
F 1 "1MEG" H 5200 2300 60  0000 C CNN
F 2 "" H 5200 2400 60  0000 C CNN
F 3 "" H 5200 2400 60  0000 C CNN
	1    5200 2400
	0    -1   -1   0   
$EndComp
Text GLabel 5200 2100 1    60   Input ~ 0
PWM
Wire Wire Line
	5200 2100 5200 2200
Wire Wire Line
	5200 2600 5200 2700
$Comp
L 0 #GND04
U 1 1 56F2E052
P 5200 2700
F 0 "#GND04" H 5200 2600 40  0001 C CNN
F 1 "0" H 5200 2630 40  0000 C CNN
F 2 "" H 5200 2700 60  0000 C CNN
F 3 "" H 5200 2700 60  0000 C CNN
	1    5200 2700
	1    0    0    -1  
$EndComp
$Comp
L R R2
U 1 1 56F2E0A1
P 3650 4200
F 0 "R2" H 3650 4300 60  0000 C CNN
F 1 "1MEG" H 3650 4100 60  0000 C CNN
F 2 "" H 3650 4200 60  0000 C CNN
F 3 "" H 3650 4200 60  0000 C CNN
	1    3650 4200
	0    -1   -1   0   
$EndComp
$Comp
L R R3
U 1 1 56F2E11A
P 3700 2400
F 0 "R3" H 3700 2500 60  0000 C CNN
F 1 "1MEG" H 3700 2300 60  0000 C CNN
F 2 "" H 3700 2400 60  0000 C CNN
F 3 "" H 3700 2400 60  0000 C CNN
	1    3700 2400
	0    -1   -1   0   
$EndComp
Wire Wire Line
	3700 2600 3700 2700
Wire Wire Line
	3700 2200 3700 2100
Wire Wire Line
	3650 4400 3650 4500
Wire Wire Line
	3650 4000 3650 3900
Text GLabel 3650 3900 1    60   Input ~ 0
SAW
$Comp
L 0 #GND05
U 1 1 56F2E250
P 3650 4500
F 0 "#GND05" H 3650 4400 40  0001 C CNN
F 1 "0" H 3650 4430 40  0000 C CNN
F 2 "" H 3650 4500 60  0000 C CNN
F 3 "" H 3650 4500 60  0000 C CNN
	1    3650 4500
	1    0    0    -1  
$EndComp
$Comp
L 0 #GND06
U 1 1 56F2E270
P 3700 2700
F 0 "#GND06" H 3700 2600 40  0001 C CNN
F 1 "0" H 3700 2630 40  0000 C CNN
F 2 "" H 3700 2700 60  0000 C CNN
F 3 "" H 3700 2700 60  0000 C CNN
	1    3700 2700
	1    0    0    -1  
$EndComp
Text GLabel 3700 2100 1    60   Input ~ 0
RISE
$Comp
L R R5
U 1 1 56F2ECD3
P 6400 3800
F 0 "R5" H 6400 3900 60  0000 C CNN
F 1 "100K" H 6400 3700 60  0000 C CNN
F 2 "" H 6400 3800 60  0000 C CNN
F 3 "" H 6400 3800 60  0000 C CNN
	1    6400 3800
	1    0    0    -1  
$EndComp
$Comp
L C C2
U 1 1 56F2ED38
P 6700 4000
F 0 "C2" H 6700 4125 60  0000 C CNN
F 1 "10n" H 6700 3875 60  0000 C CNN
F 2 "" H 6050 4550 60  0000 C CNN
F 3 "" H 6050 4550 60  0000 C CNN
	1    6700 4000
	0    -1   -1   0   
$EndComp
$Comp
L 0 #GND07
U 1 1 56F2ED84
P 6700 4200
F 0 "#GND07" H 6700 4100 40  0001 C CNN
F 1 "0" H 6700 4130 40  0000 C CNN
F 2 "" H 6700 4200 60  0000 C CNN
F 3 "" H 6700 4200 60  0000 C CNN
	1    6700 4200
	1    0    0    -1  
$EndComp
Wire Wire Line
	6600 3800 6800 3800
Wire Wire Line
	6700 3800 6700 3900
Wire Wire Line
	6700 4100 6700 4200
Text GLabel 6800 3800 2    60   Input ~ 0
OUT
Connection ~ 6700 3800
$Comp
L R R6
U 1 1 58BFBB0A
P 6900 2400
F 0 "R6" H 6900 2500 60  0000 C CNN
F 1 "1MEG" H 6900 2300 60  0000 C CNN
F 2 "" H 6900 2400 60  0000 C CNN
F 3 "" H 6900 2400 60  0000 C CNN
	1    6900 2400
	0    -1   -1   0   
$EndComp
Text GLabel 6900 2100 1    60   Input ~ 0
OUT
Wire Wire Line
	6900 2100 6900 2200
Wire Wire Line
	6900 2600 6900 2700
$Comp
L 0 #GND?
U 1 1 58BFBB13
P 6900 2700
F 0 "#GND?" H 6900 2600 40  0001 C CNN
F 1 "0" H 6900 2630 40  0000 C CNN
F 2 "" H 6900 2700 60  0000 C CNN
F 3 "" H 6900 2700 60  0000 C CNN
	1    6900 2700
	1    0    0    -1  
$EndComp
$EndSCHEMATC
